{"failedCount":0,"prefixedPath":"src\/test\/java\/users\/get\/user-get.feature","packageQualifiedName":"src.test.java.users.get.user-get","loopIndex":-1,"relativePath":"src\/test\/java\/users\/get\/user-get.feature","scenarioResults":[{"sectionIndex":7,"stepResults":[{"result":{"nanos":118261500,"millis":118.2615,"status":"passed"},"step":{"line":49,"prefix":"*","index":0,"text":"def jsonResponse = read('..\/json\/login1_get.json')"}},{"result":{"nanos":1208800,"millis":1.2088,"status":"passed"},"step":{"line":50,"prefix":"Given","index":1,"text":"url \"https:\/\/reqres.in\/api\/login\""}},{"result":{"nanos":762191600,"millis":762.1916,"status":"passed"},"step":{"line":51,"prefix":"When","index":2,"text":"method GET"},"stepLog":"15:00:20.094 request:\n1 > GET https:\/\/reqres.in\/api\/login\n1 > Host: reqres.in\n1 > Connection: Keep-Alive\n1 > User-Agent: Apache-HttpClient\/4.5.13 (Java\/1.8.0_321)\n1 > Accept-Encoding: gzip,deflate\n\n\n15:00:20.364 response time in milliseconds: 186\n1 < 200\n1 < Date: Fri, 28 Jul 2023 13:00:20 GMT\n1 < Content-Type: application\/json; charset=utf-8\n1 < Transfer-Encoding: chunked\n1 < Connection: keep-alive\n1 < X-Powered-By: Express\n1 < Access-Control-Allow-Origin: *\n1 < Etag: W\/\"2c1-N6Rqerxquq2kgQhL51EiSg4x0R8\"\n1 < Via: 1.1 vegur\n1 < Cache-Control: max-age=14400\n1 < CF-Cache-Status: HIT\n1 < Age: 487\n1 < Report-To: {\"endpoints\":[{\"url\":\"https:\\\/\\\/a.nel.cloudflare.com\\\/report\\\/v3?s=COdaPJywenNZf4p4PWpIYEW0xGmKTBcUsT8loyDEHAPrZE7nkcRNJeHzfyfaaepxmern9OD9TK6A3514jto%2FwPD1jH2S7YfMasYruYoyhhhWjUQRuRbejgNymg%3D%3D\"}],\"group\":\"cf-nel\",\"max_age\":604800}\n1 < NEL: {\"success_fraction\":0,\"report_to\":\"cf-nel\",\"max_age\":604800}\n1 < Vary: Accept-Encoding\n1 < Server: cloudflare\n1 < CF-RAY: 7edd4df2bdc786c9-MAD\n{\"page\":1,\"per_page\":6,\"total\":12,\"total_pages\":2,\"data\":[{\"id\":1,\"name\":\"cerulean\",\"year\":2000,\"color\":\"#98B2D1\",\"pantone_value\":\"15-4020\"},{\"id\":2,\"name\":\"fuchsia rose\",\"year\":2001,\"color\":\"#C74375\",\"pantone_value\":\"17-2031\"},{\"id\":3,\"name\":\"true red\",\"year\":2002,\"color\":\"#BF1932\",\"pantone_value\":\"19-1664\"},{\"id\":4,\"name\":\"aqua sky\",\"year\":2003,\"color\":\"#7BC4C4\",\"pantone_value\":\"14-4811\"},{\"id\":5,\"name\":\"tigerlily\",\"year\":2004,\"color\":\"#E2583E\",\"pantone_value\":\"17-1456\"},{\"id\":6,\"name\":\"blue turquoise\",\"year\":2005,\"color\":\"#53B0AE\",\"pantone_value\":\"15-5217\"}],\"support\":{\"url\":\"https:\/\/reqres.in\/#support-heading\",\"text\":\"To keep ReqRes free, contributions towards server costs are appreciated!\"}}\n\n"},{"result":{"nanos":12500,"millis":0.0125,"status":"passed"},"step":{"line":52,"prefix":"Then","index":3,"text":"status 200"}},{"result":{"nanos":12198600,"millis":12.1986,"status":"passed"},"step":{"line":53,"prefix":"And","index":4,"text":"match $ == jsonResponse"}}],"executorName":"main","line":48,"name":"Post login succeful with response","description":"","durationMillis":893.873,"startTime":1690549219479,"failed":false,"refId":"[8:48]","endTime":1690549220380,"exampleIndex":-1}],"callDepth":0,"name":"Get user regres","description":"","resultDate":"2023-07-28 03:00:20 PM","durationMillis":893.873,"passedCount":1}