{"failedCount":1,"prefixedPath":"src\/test\/java\/users\/erros\/errors.users.get.feature","packageQualifiedName":"src.test.java.users.erros.errors.users.get","loopIndex":-1,"relativePath":"src\/test\/java\/users\/erros\/errors.users.get.feature","scenarioResults":[{"sectionIndex":1,"stepResults":[{"result":{"nanos":108264900,"millis":108.2649,"status":"passed"},"step":{"line":9,"prefix":"*","index":0,"text":"def jsonResponse = read('..\/json\/login2_get.json')"}},{"result":{"nanos":1617100,"millis":1.6171,"status":"passed"},"step":{"line":10,"prefix":"Given","index":1,"text":"url \"https:\/\/reqres.in\/api\/login\""}},{"result":{"nanos":861662000,"millis":861.662,"status":"passed"},"step":{"line":11,"prefix":"When","index":2,"text":"method POST"},"stepLog":"15:21:37.290 request:\n1 > POST https:\/\/reqres.in\/api\/login\n1 > Host: reqres.in\n1 > Connection: Keep-Alive\n1 > User-Agent: Apache-HttpClient\/4.5.13 (Java\/1.8.0_321)\n1 > Accept-Encoding: gzip,deflate\n\n\n15:21:37.665 response time in milliseconds: 290\n1 < 400\n1 < Date: Fri, 28 Jul 2023 13:21:37 GMT\n1 < Content-Type: application\/json; charset=utf-8\n1 < Content-Length: 37\n1 < Connection: keep-alive\n1 < X-Powered-By: Express\n1 < Access-Control-Allow-Origin: *\n1 < Etag: W\/\"25-Ik70kof1lbc973ShN5FoVPxYn7A\"\n1 < Via: 1.1 vegur\n1 < CF-Cache-Status: DYNAMIC\n1 < Report-To: {\"endpoints\":[{\"url\":\"https:\\\/\\\/a.nel.cloudflare.com\\\/report\\\/v3?s=x2rm6VltJhS%2BPEf7Ppz3CDPgsXVjXr1ywbmx6JfqgDMcptOAi7AD4Hl5gVx3iTCWb8MtczBbzLOcVqNMMpfEadL1crDiAq5Atc3XoRc%2BFk5D1EIifhlRqEx1XA%3D%3D\"}],\"group\":\"cf-nel\",\"max_age\":604800}\n1 < NEL: {\"success_fraction\":0,\"report_to\":\"cf-nel\",\"max_age\":604800}\n1 < Server: cloudflare\n1 < CF-RAY: 7edd6d213fec1bab-MAD\n{\"error\":\"Missing email or username\"}\n\n"},{"result":{"nanos":18000,"millis":0.018,"status":"passed"},"step":{"line":12,"prefix":"Then","index":3,"text":"status 400"}},{"result":{"nanos":14228000,"errorMessage":"match failed: EQUALS\n  $ | not equal | actual does not contain key - 'page' (MAP:MAP)\n  {\"error\":\"Missing email or username\"}\n  {\"page\":1,\"per_page\":6,\"total\":12,\"total_pages\":2,\"data\":[{\"id\":1,\"name\":\"cerulean\",\"year\":2000,\"color\":\"#98B2D1\",\"pantone_value\":\"15-4020\"},{\"id\":2,\"name\":\"fuchsia rose\",\"year\":2001,\"color\":\"#C74375\",\"pantone_value\":\"17-2031\"},{\"id\":3,\"name\":\"true red\",\"year\":2002,\"color\":\"#BF1932\",\"pantone_value\":\"19-1664\"},{\"id\":4,\"name\":\"aqua sky\",\"year\":2003,\"color\":\"#7BC4C4\",\"pantone_value\":\"14-4811\"},{\"id\":5,\"name\":\"tigerlily\",\"year\":2004,\"color\":\"#E2583E\",\"pantone_value\":\"17-1456\"},{\"id\":6,\"name\":\"blue turquoise\",\"year\":2005,\"color\":\"#53B0AE\",\"pantone_value\":\"15-5217\"}],\"support\":{\"url\":\"https:\/\/reqres.in\/#support-heading\",\"text\":\"To keep ReqRes free, contributions towards server costs are appreciated!\"}}\n\n\nsrc\/test\/java\/users\/erros\/errors.users.get.feature:13","millis":14.228,"status":"failed"},"step":{"line":13,"prefix":"And","index":4,"text":"match $ == jsonResponse"},"stepLog":"15:21:37.684 src\/test\/java\/users\/erros\/errors.users.get.feature:13\nAnd match $ == jsonResponse\nmatch failed: EQUALS\n  $ | not equal | actual does not contain key - 'page' (MAP:MAP)\n  {\"error\":\"Missing email or username\"}\n  {\"page\":1,\"per_page\":6,\"total\":12,\"total_pages\":2,\"data\":[{\"id\":1,\"name\":\"cerulean\",\"year\":2000,\"color\":\"#98B2D1\",\"pantone_value\":\"15-4020\"},{\"id\":2,\"name\":\"fuchsia rose\",\"year\":2001,\"color\":\"#C74375\",\"pantone_value\":\"17-2031\"},{\"id\":3,\"name\":\"true red\",\"year\":2002,\"color\":\"#BF1932\",\"pantone_value\":\"19-1664\"},{\"id\":4,\"name\":\"aqua sky\",\"year\":2003,\"color\":\"#7BC4C4\",\"pantone_value\":\"14-4811\"},{\"id\":5,\"name\":\"tigerlily\",\"year\":2004,\"color\":\"#E2583E\",\"pantone_value\":\"17-1456\"},{\"id\":6,\"name\":\"blue turquoise\",\"year\":2005,\"color\":\"#53B0AE\",\"pantone_value\":\"15-5217\"}],\"support\":{\"url\":\"https:\/\/reqres.in\/#support-heading\",\"text\":\"To keep ReqRes free, contributions towards server costs are appreciated!\"}}\n\n\nsrc\/test\/java\/users\/erros\/errors.users.get.feature:13\n"}],"line":8,"description":"","durationMillis":985.79,"failed":true,"error":"match failed: EQUALS\n  $ | not equal | actual does not contain key - 'page' (MAP:MAP)\n  {\"error\":\"Missing email or username\"}\n  {\"page\":1,\"per_page\":6,\"total\":12,\"total_pages\":2,\"data\":[{\"id\":1,\"name\":\"cerulean\",\"year\":2000,\"color\":\"#98B2D1\",\"pantone_value\":\"15-4020\"},{\"id\":2,\"name\":\"fuchsia rose\",\"year\":2001,\"color\":\"#C74375\",\"pantone_value\":\"17-2031\"},{\"id\":3,\"name\":\"true red\",\"year\":2002,\"color\":\"#BF1932\",\"pantone_value\":\"19-1664\"},{\"id\":4,\"name\":\"aqua sky\",\"year\":2003,\"color\":\"#7BC4C4\",\"pantone_value\":\"14-4811\"},{\"id\":5,\"name\":\"tigerlily\",\"year\":2004,\"color\":\"#E2583E\",\"pantone_value\":\"17-1456\"},{\"id\":6,\"name\":\"blue turquoise\",\"year\":2005,\"color\":\"#53B0AE\",\"pantone_value\":\"15-5217\"}],\"support\":{\"url\":\"https:\/\/reqres.in\/#support-heading\",\"text\":\"To keep ReqRes free, contributions towards server costs are appreciated!\"}}\n\n\nsrc\/test\/java\/users\/erros\/errors.users.get.feature:13","executorName":"main","name":"Get errors login unsuccesful regres with respose","startTime":1690550496688,"refId":"[2:8]","endTime":1690550497684,"exampleIndex":-1}],"callDepth":0,"name":"Get errors login unsuccesful regres","description":"","resultDate":"2023-07-28 03:21:37 PM","durationMillis":985.79,"passedCount":0}