{"failedCount":1,"prefixedPath":"src\/test\/java\/users\/erros\/errors.users.get.feature","packageQualifiedName":"src.test.java.users.erros.errors.users.get","loopIndex":-1,"relativePath":"src\/test\/java\/users\/erros\/errors.users.get.feature","scenarioResults":[{"sectionIndex":0,"stepResults":[{"result":{"nanos":44885600,"millis":44.8856,"status":"passed"},"step":{"line":4,"prefix":"Given","index":0,"text":"url \"https:\/\/reqres.in\/api\/login\""}},{"result":{"nanos":780791900,"millis":780.7919,"status":"passed"},"step":{"line":5,"prefix":"When","index":1,"text":"method POST"},"stepLog":"18:49:50.766 request:\n1 > POST https:\/\/reqres.in\/api\/login\n1 > Host: reqres.in\n1 > Connection: Keep-Alive\n1 > User-Agent: Apache-HttpClient\/4.5.13 (Java\/1.8.0_321)\n1 > Accept-Encoding: gzip,deflate\n\n\n18:49:51.029 response time in milliseconds: 261\n1 < 400\n1 < Date: Fri, 28 Jul 2023 16:49:51 GMT\n1 < Content-Type: application\/json; charset=utf-8\n1 < Content-Length: 37\n1 < Connection: keep-alive\n1 < X-Powered-By: Express\n1 < Access-Control-Allow-Origin: *\n1 < Etag: W\/\"25-Ik70kof1lbc973ShN5FoVPxYn7A\"\n1 < Via: 1.1 vegur\n1 < CF-Cache-Status: DYNAMIC\n1 < Report-To: {\"endpoints\":[{\"url\":\"https:\\\/\\\/a.nel.cloudflare.com\\\/report\\\/v3?s=4p5jEzbI4ZIPzdZE1N%2BD9%2BYEexJ3%2B0Q9yxuzS9Zwh6TKVsW3IOiF9LquAIjCGRyKZ6jkDmPaHJOVDheQqaKhADf6mZd2r%2B37F2x1ZSfbX9g3De%2FtSUer9LndSg%3D%3D\"}],\"group\":\"cf-nel\",\"max_age\":604800}\n1 < NEL: {\"success_fraction\":0,\"report_to\":\"cf-nel\",\"max_age\":604800}\n1 < Server: cloudflare\n1 < CF-RAY: 7ede9e255f512165-MAD\n{\"error\":\"Missing email or username\"}\n\n"},{"result":{"nanos":11500,"millis":0.0115,"status":"passed"},"step":{"line":6,"prefix":"Then","index":2,"text":"status 400"}}],"executorName":"main","line":3,"name":"Get errors login unsuccesful regres","description":"","durationMillis":825.689,"startTime":1690562990211,"failed":false,"refId":"[1:3]","endTime":1690562991045,"exampleIndex":-1},{"sectionIndex":1,"stepResults":[{"result":{"nanos":138243200,"millis":138.2432,"status":"passed"},"step":{"line":9,"prefix":"*","index":0,"text":"def jsonResponse = read('..\/json\/login2_get.json')"}},{"result":{"nanos":637300,"millis":0.6373,"status":"passed"},"step":{"line":10,"prefix":"Given","index":1,"text":"url \"https:\/\/reqres.in\/api\/login\""}},{"result":{"nanos":132732200,"millis":132.7322,"status":"passed"},"step":{"line":11,"prefix":"When","index":2,"text":"method GET"},"stepLog":"18:49:51.190 request:\n1 > GET https:\/\/reqres.in\/api\/login\n1 > Host: reqres.in\n1 > Connection: Keep-Alive\n1 > User-Agent: Apache-HttpClient\/4.5.13 (Java\/1.8.0_321)\n1 > Accept-Encoding: gzip,deflate\n\n\n18:49:51.321 response time in milliseconds: 131\n1 < 200\n1 < Date: Fri, 28 Jul 2023 16:49:51 GMT\n1 < Content-Type: application\/json; charset=utf-8\n1 < Transfer-Encoding: chunked\n1 < Connection: keep-alive\n1 < X-Powered-By: Express\n1 < Access-Control-Allow-Origin: *\n1 < Etag: W\/\"2c1-N6Rqerxquq2kgQhL51EiSg4x0R8\"\n1 < Via: 1.1 vegur\n1 < Cache-Control: max-age=14400\n1 < CF-Cache-Status: REVALIDATED\n1 < Report-To: {\"endpoints\":[{\"url\":\"https:\\\/\\\/a.nel.cloudflare.com\\\/report\\\/v3?s=0eCOIenSSeGISgZws1DDmPOwKMJ3PZaRVJSR0jKoyU9MVGvAwBhAi7xpj98heLsBmZKnUznPy6y%2FSsSRHINhGCLIpNTAtT%2BvuUHKZKG%2BXUVQCWegXi4JqR%2Fdhg%3D%3D\"}],\"group\":\"cf-nel\",\"max_age\":604800}\n1 < NEL: {\"success_fraction\":0,\"report_to\":\"cf-nel\",\"max_age\":604800}\n1 < Vary: Accept-Encoding\n1 < Server: cloudflare\n1 < CF-RAY: 7ede9e2738202fa6-MAD\n{\"page\":1,\"per_page\":6,\"total\":12,\"total_pages\":2,\"data\":[{\"id\":1,\"name\":\"cerulean\",\"year\":2000,\"color\":\"#98B2D1\",\"pantone_value\":\"15-4020\"},{\"id\":2,\"name\":\"fuchsia rose\",\"year\":2001,\"color\":\"#C74375\",\"pantone_value\":\"17-2031\"},{\"id\":3,\"name\":\"true red\",\"year\":2002,\"color\":\"#BF1932\",\"pantone_value\":\"19-1664\"},{\"id\":4,\"name\":\"aqua sky\",\"year\":2003,\"color\":\"#7BC4C4\",\"pantone_value\":\"14-4811\"},{\"id\":5,\"name\":\"tigerlily\",\"year\":2004,\"color\":\"#E2583E\",\"pantone_value\":\"17-1456\"},{\"id\":6,\"name\":\"blue turquoise\",\"year\":2005,\"color\":\"#53B0AE\",\"pantone_value\":\"15-5217\"}],\"support\":{\"url\":\"https:\/\/reqres.in\/#support-heading\",\"text\":\"To keep ReqRes free, contributions towards server costs are appreciated!\"}}\n\n"},{"result":{"nanos":0,"errorMessage":"no step-definition method match found for: status POST\nsrc\/test\/java\/users\/erros\/errors.users.get.feature:12","millis":0.0,"status":"failed"},"step":{"line":12,"prefix":"Then","index":3,"text":"status POST"},"stepLog":"18:49:51.322 src\/test\/java\/users\/erros\/errors.users.get.feature:12\nThen status POST\nno step-definition method match found for: status POST\nsrc\/test\/java\/users\/erros\/errors.users.get.feature:12\n"},{"result":{"nanos":0,"millis":0.0,"status":"skipped"},"step":{"line":13,"prefix":"And","index":4,"text":"match $ == jsonResponse"}},{"result":{"nanos":0,"millis":0.0,"status":"skipped"},"step":{"line":14,"prefix":"And","index":5,"text":"match $ == read('..\/json\/login2_get.json')"}}],"line":8,"description":"","durationMillis":271.6127,"failed":true,"error":"no step-definition method match found for: status POST\nsrc\/test\/java\/users\/erros\/errors.users.get.feature:12","executorName":"main","name":"Get errors login unsuccesful regres with respose","startTime":1690562991050,"refId":"[2:8]","endTime":1690562991322,"exampleIndex":-1}],"callDepth":0,"name":"Get errors login unsuccesful regres","description":"","resultDate":"2023-07-28 06:49:51 PM","durationMillis":1097.3017,"passedCount":1}