{"failedCount":1,"prefixedPath":"src\/test\/java\/users\/erros\/errors.users.get.feature","packageQualifiedName":"src.test.java.users.erros.errors.users.get","loopIndex":-1,"relativePath":"src\/test\/java\/users\/erros\/errors.users.get.feature","scenarioResults":[{"sectionIndex":0,"stepResults":[{"result":{"nanos":46290600,"millis":46.2906,"status":"passed"},"step":{"line":4,"prefix":"Given","index":0,"text":"url \"https:\/\/reqres.in\/api\/login\""}},{"result":{"nanos":775364100,"millis":775.3641,"status":"passed"},"step":{"line":5,"prefix":"When","index":1,"text":"method POST"},"stepLog":"18:50:42.866 request:\n1 > POST https:\/\/reqres.in\/api\/login\n1 > Host: reqres.in\n1 > Connection: Keep-Alive\n1 > User-Agent: Apache-HttpClient\/4.5.13 (Java\/1.8.0_321)\n1 > Accept-Encoding: gzip,deflate\n\n\n18:50:43.113 response time in milliseconds: 246\n1 < 400\n1 < Date: Fri, 28 Jul 2023 16:50:43 GMT\n1 < Content-Type: application\/json; charset=utf-8\n1 < Content-Length: 37\n1 < Connection: keep-alive\n1 < X-Powered-By: Express\n1 < Access-Control-Allow-Origin: *\n1 < Etag: W\/\"25-Ik70kof1lbc973ShN5FoVPxYn7A\"\n1 < Via: 1.1 vegur\n1 < CF-Cache-Status: DYNAMIC\n1 < Report-To: {\"endpoints\":[{\"url\":\"https:\\\/\\\/a.nel.cloudflare.com\\\/report\\\/v3?s=%2B5UbyAPj8%2BjOeYx6l9kvI3gt5IBw8EdUPi3ZMzFX5WQayfHMLITi1enIHwwU%2BvM5aZxspPn0ZhREc4A4SvZqAbOb6FzlCb6QnzGX8XDVNo6uMCc7X8lV%2FcvMWw%3D%3D\"}],\"group\":\"cf-nel\",\"max_age\":604800}\n1 < NEL: {\"success_fraction\":0,\"report_to\":\"cf-nel\",\"max_age\":604800}\n1 < Server: cloudflare\n1 < CF-RAY: 7ede9f6adcf12f89-MAD\n{\"error\":\"Missing email or username\"}\n\n"},{"result":{"nanos":14700,"millis":0.0147,"status":"passed"},"step":{"line":6,"prefix":"Then","index":2,"text":"status 400"}}],"executorName":"main","line":3,"name":"Get errors login unsuccesful regres","description":"","durationMillis":821.6694,"startTime":1690563042299,"failed":false,"refId":"[1:3]","endTime":1690563043130,"exampleIndex":-1},{"sectionIndex":1,"stepResults":[{"result":{"nanos":131725600,"millis":131.7256,"status":"passed"},"step":{"line":9,"prefix":"*","index":0,"text":"def jsonResponse = read('..\/json\/login2_get.json')"}},{"result":{"nanos":636300,"millis":0.6363,"status":"passed"},"step":{"line":10,"prefix":"Given","index":1,"text":"url \"https:\/\/reqres.in\/api\/login\""}},{"result":{"nanos":120652100,"millis":120.6521,"status":"passed"},"step":{"line":11,"prefix":"When","index":2,"text":"method POST"},"stepLog":"18:50:43.269 request:\n1 > POST https:\/\/reqres.in\/api\/login\n1 > Host: reqres.in\n1 > Connection: Keep-Alive\n1 > User-Agent: Apache-HttpClient\/4.5.13 (Java\/1.8.0_321)\n1 > Accept-Encoding: gzip,deflate\n\n\n18:50:43.388 response time in milliseconds: 118\n1 < 400\n1 < Date: Fri, 28 Jul 2023 16:50:43 GMT\n1 < Content-Type: application\/json; charset=utf-8\n1 < Content-Length: 37\n1 < Connection: keep-alive\n1 < X-Powered-By: Express\n1 < Access-Control-Allow-Origin: *\n1 < Etag: W\/\"25-Ik70kof1lbc973ShN5FoVPxYn7A\"\n1 < Via: 1.1 vegur\n1 < CF-Cache-Status: DYNAMIC\n1 < Report-To: {\"endpoints\":[{\"url\":\"https:\\\/\\\/a.nel.cloudflare.com\\\/report\\\/v3?s=Hm9IUufb7tdDJg9Pa23K6XKjWs%2FW9AZekt7NHMtAt4pKwUqluM8i9lYC74zP7cZcg%2B7ZOaFH4gW9vPPzJbgdyUzc%2Fk9ptLjxIWRU%2BuQVDPwuYEHhsbp6TNi9mw%3D%3D\"}],\"group\":\"cf-nel\",\"max_age\":604800}\n1 < NEL: {\"success_fraction\":0,\"report_to\":\"cf-nel\",\"max_age\":604800}\n1 < Server: cloudflare\n1 < CF-RAY: 7ede9f6cbfd0214d-MAD\n{\"error\":\"Missing email or username\"}\n\n"},{"result":{"nanos":7400,"millis":0.0074,"status":"passed"},"step":{"line":12,"prefix":"Then","index":3,"text":"status 400"}},{"result":{"nanos":13096400,"errorMessage":"match failed: EQUALS\n  $ | not equal | actual does not contain key - 'page' (MAP:MAP)\n  {\"error\":\"Missing email or username\"}\n  {\"page\":1,\"per_page\":6,\"total\":12,\"total_pages\":2,\"data\":[{\"id\":1,\"name\":\"cerulean\",\"year\":2000,\"color\":\"#98B2D1\",\"pantone_value\":\"15-4020\"},{\"id\":2,\"name\":\"fuchsia rose\",\"year\":2001,\"color\":\"#C74375\",\"pantone_value\":\"17-2031\"},{\"id\":3,\"name\":\"true red\",\"year\":2002,\"color\":\"#BF1932\",\"pantone_value\":\"19-1664\"},{\"id\":4,\"name\":\"aqua sky\",\"year\":2003,\"color\":\"#7BC4C4\",\"pantone_value\":\"14-4811\"},{\"id\":5,\"name\":\"tigerlily\",\"year\":2004,\"color\":\"#E2583E\",\"pantone_value\":\"17-1456\"},{\"id\":6,\"name\":\"blue turquoise\",\"year\":2005,\"color\":\"#53B0AE\",\"pantone_value\":\"15-5217\"}],\"support\":{\"url\":\"https:\/\/reqres.in\/#support-heading\",\"text\":\"To keep ReqRes free, contributions towards server costs are appreciated!\"}}\n\n\nsrc\/test\/java\/users\/erros\/errors.users.get.feature:13","millis":13.0964,"status":"failed"},"step":{"line":13,"prefix":"And","index":4,"text":"match $ == jsonResponse"},"stepLog":"18:50:43.402 src\/test\/java\/users\/erros\/errors.users.get.feature:13\nAnd match $ == jsonResponse\nmatch failed: EQUALS\n  $ | not equal | actual does not contain key - 'page' (MAP:MAP)\n  {\"error\":\"Missing email or username\"}\n  {\"page\":1,\"per_page\":6,\"total\":12,\"total_pages\":2,\"data\":[{\"id\":1,\"name\":\"cerulean\",\"year\":2000,\"color\":\"#98B2D1\",\"pantone_value\":\"15-4020\"},{\"id\":2,\"name\":\"fuchsia rose\",\"year\":2001,\"color\":\"#C74375\",\"pantone_value\":\"17-2031\"},{\"id\":3,\"name\":\"true red\",\"year\":2002,\"color\":\"#BF1932\",\"pantone_value\":\"19-1664\"},{\"id\":4,\"name\":\"aqua sky\",\"year\":2003,\"color\":\"#7BC4C4\",\"pantone_value\":\"14-4811\"},{\"id\":5,\"name\":\"tigerlily\",\"year\":2004,\"color\":\"#E2583E\",\"pantone_value\":\"17-1456\"},{\"id\":6,\"name\":\"blue turquoise\",\"year\":2005,\"color\":\"#53B0AE\",\"pantone_value\":\"15-5217\"}],\"support\":{\"url\":\"https:\/\/reqres.in\/#support-heading\",\"text\":\"To keep ReqRes free, contributions towards server costs are appreciated!\"}}\n\n\nsrc\/test\/java\/users\/erros\/errors.users.get.feature:13\n"},{"result":{"nanos":0,"millis":0.0,"status":"skipped"},"step":{"line":14,"prefix":"And","index":5,"text":"match $ == read('..\/json\/login2_get.json')"}}],"line":8,"description":"","durationMillis":266.1178,"failed":true,"error":"match failed: EQUALS\n  $ | not equal | actual does not contain key - 'page' (MAP:MAP)\n  {\"error\":\"Missing email or username\"}\n  {\"page\":1,\"per_page\":6,\"total\":12,\"total_pages\":2,\"data\":[{\"id\":1,\"name\":\"cerulean\",\"year\":2000,\"color\":\"#98B2D1\",\"pantone_value\":\"15-4020\"},{\"id\":2,\"name\":\"fuchsia rose\",\"year\":2001,\"color\":\"#C74375\",\"pantone_value\":\"17-2031\"},{\"id\":3,\"name\":\"true red\",\"year\":2002,\"color\":\"#BF1932\",\"pantone_value\":\"19-1664\"},{\"id\":4,\"name\":\"aqua sky\",\"year\":2003,\"color\":\"#7BC4C4\",\"pantone_value\":\"14-4811\"},{\"id\":5,\"name\":\"tigerlily\",\"year\":2004,\"color\":\"#E2583E\",\"pantone_value\":\"17-1456\"},{\"id\":6,\"name\":\"blue turquoise\",\"year\":2005,\"color\":\"#53B0AE\",\"pantone_value\":\"15-5217\"}],\"support\":{\"url\":\"https:\/\/reqres.in\/#support-heading\",\"text\":\"To keep ReqRes free, contributions towards server costs are appreciated!\"}}\n\n\nsrc\/test\/java\/users\/erros\/errors.users.get.feature:13","executorName":"main","name":"Get errors login unsuccesful regres with respose","startTime":1690563043135,"refId":"[2:8]","endTime":1690563043402,"exampleIndex":-1}],"callDepth":0,"name":"Get errors login unsuccesful regres","description":"","resultDate":"2023-07-28 06:50:43 PM","durationMillis":1087.7872,"passedCount":1}