{"failedCount":1,"prefixedPath":"src\/test\/java\/users\/patch\/user-patch.feature","packageQualifiedName":"src.test.java.users.patch.user-patch","loopIndex":-1,"relativePath":"src\/test\/java\/users\/patch\/user-patch.feature","scenarioResults":[{"sectionIndex":6,"stepResults":[{"result":{"nanos":112307000,"millis":112.307,"status":"passed"},"step":{"line":35,"prefix":"*","index":0,"text":"def jsonResponse = read('..\/json\/patch_users.json')"}},{"result":{"nanos":4023800,"millis":4.0238,"status":"passed"},"step":{"line":36,"prefix":"Given","index":1,"text":"url \"https:\/\/reqres.in\" + \"\/api\/users\/\" + \"10\""}},{"result":{"nanos":910470500,"millis":910.4705,"status":"passed"},"step":{"line":37,"prefix":"When","index":2,"text":"method get"},"stepLog":"09:50:30.857 request:\n1 > GET https:\/\/reqres.in\/api\/users\/10\n1 > Host: reqres.in\n1 > Connection: Keep-Alive\n1 > User-Agent: Apache-HttpClient\/4.5.13 (Java\/1.8.0_321)\n1 > Accept-Encoding: gzip,deflate\n\n\n09:50:31.233 response time in milliseconds: 374\n1 < 200\n1 < Date: Fri, 28 Jul 2023 07:50:31 GMT\n1 < Content-Type: application\/json; charset=utf-8\n1 < Transfer-Encoding: chunked\n1 < Connection: keep-alive\n1 < X-Powered-By: Express\n1 < Access-Control-Allow-Origin: *\n1 < Etag: W\/\"11a-HZArdo\/NdQVkMJD6hJ+FKDocHPs\"\n1 < Via: 1.1 vegur\n1 < Cache-Control: max-age=14400\n1 < CF-Cache-Status: MISS\n1 < Report-To: {\"endpoints\":[{\"url\":\"https:\\\/\\\/a.nel.cloudflare.com\\\/report\\\/v3?s=f5AEoGJV8znj1oq96cjL2FfpHxLRKX863mLv8MJhHtp7Su0%2F4Nlmxiak0tVLUXUZgJuQp%2B9lCynvA9wmasbEb5nwMKxbPHIOsLUTbc7Vz%2FlONzbYtGz5CVTNEA%3D%3D\"}],\"group\":\"cf-nel\",\"max_age\":604800}\n1 < NEL: {\"success_fraction\":0,\"report_to\":\"cf-nel\",\"max_age\":604800}\n1 < Vary: Accept-Encoding\n1 < Server: cloudflare\n1 < CF-RAY: 7edb881c1ab73144-MAD\n{\"data\":{\"id\":10,\"email\":\"byron.fields@reqres.in\",\"first_name\":\"Byron\",\"last_name\":\"Fields\",\"avatar\":\"https:\/\/reqres.in\/img\/faces\/10-image.jpg\"},\"support\":{\"url\":\"https:\/\/reqres.in\/#support-heading\",\"text\":\"To keep ReqRes free, contributions towards server costs are appreciated!\"}}\n\n"},{"result":{"nanos":13200,"millis":0.0132,"status":"passed"},"step":{"line":38,"prefix":"Then","index":3,"text":"status 200"}},{"result":{"nanos":14250400,"errorMessage":"match failed: EQUALS\n  $ | not equal | actual does not contain key - 'page' (MAP:MAP)\n  {\"data\":{\"id\":10,\"email\":\"byron.fields@reqres.in\",\"first_name\":\"Byron\",\"last_name\":\"Fields\",\"avatar\":\"https:\/\/reqres.in\/img\/faces\/10-image.jpg\"},\"support\":{\"url\":\"https:\/\/reqres.in\/#support-heading\",\"text\":\"To keep ReqRes free, contributions towards server costs are appreciated!\"}}\n  {\"data\":[{\"id\":1,\"email\":\"george.bluth@reqres.in\",\"first_name\":\"George\",\"last_name\":\"Bluth\",\"avatar\":\"https:\/\/reqres.in\/img\/faces\/1-image.jpg\"},{\"id\":2,\"email\":\"janet.weaver@reqres.in\",\"first_name\":\"Janet\",\"last_name\":\"Weaver\",\"avatar\":\"https:\/\/reqres.in\/img\/faces\/2-image.jpg\"},{\"id\":3,\"email\":\"emma.wong@reqres.in\",\"first_name\":\"Emma\",\"last_name\":\"Wong\",\"avatar\":\"https:\/\/reqres.in\/img\/faces\/3-image.jpg\"},{\"id\":4,\"email\":\"eve.holt@reqres.in\",\"first_name\":\"Eve\",\"last_name\":\"Holt\",\"avatar\":\"https:\/\/reqres.in\/img\/faces\/4-image.jpg\"},{\"id\":5,\"email\":\"charles.morris@reqres.in\",\"first_name\":\"Charles\",\"last_name\":\"Morris\",\"avatar\":\"https:\/\/reqres.in\/img\/faces\/5-image.jpg\"},{\"id\":6,\"email\":\"tracey.ramos@reqres.in\",\"first_name\":\"Tracey\",\"last_name\":\"Ramos\",\"avatar\":\"https:\/\/reqres.in\/img\/faces\/6-image.jpg\"}],\"support\":{\"url\":\"https:\/\/reqres.in\/#support-heading\",\"text\":\"To keep ReqRes free, contributions towards server costs are appreciated!\"},\"page\":1,\"per_page\":6,\"total\":12,\"total_pages\":2}\n\n\nsrc\/test\/java\/users\/patch\/user-patch.feature:41","millis":14.2504,"status":"failed"},"step":{"comments":["#    And match $ == {\"data\": {\"id\": 10,\"email\": \"byron.fields@reqres.in\",\"first_name\": \"Byron\",\"last_name\": \"Fields\",\"avatar\": \"https:\/\/reqres.in\/img\/faces\/10-image.jpg\"},\"support\": {\"url\": \"https:\/\/reqres.in\/#support-heading\",\"text\": \"To keep ReqRes free, contributions towards server costs are appreciated!\"}}","#    And match $ == jsonResponse"],"line":41,"prefix":"And","index":4,"text":"match $ == read('..\/json\/list_of_users.json')"},"stepLog":"09:50:31.251 src\/test\/java\/users\/patch\/user-patch.feature:41\nAnd match $ == read('..\/json\/list_of_users.json')\nmatch failed: EQUALS\n  $ | not equal | actual does not contain key - 'page' (MAP:MAP)\n  {\"data\":{\"id\":10,\"email\":\"byron.fields@reqres.in\",\"first_name\":\"Byron\",\"last_name\":\"Fields\",\"avatar\":\"https:\/\/reqres.in\/img\/faces\/10-image.jpg\"},\"support\":{\"url\":\"https:\/\/reqres.in\/#support-heading\",\"text\":\"To keep ReqRes free, contributions towards server costs are appreciated!\"}}\n  {\"data\":[{\"id\":1,\"email\":\"george.bluth@reqres.in\",\"first_name\":\"George\",\"last_name\":\"Bluth\",\"avatar\":\"https:\/\/reqres.in\/img\/faces\/1-image.jpg\"},{\"id\":2,\"email\":\"janet.weaver@reqres.in\",\"first_name\":\"Janet\",\"last_name\":\"Weaver\",\"avatar\":\"https:\/\/reqres.in\/img\/faces\/2-image.jpg\"},{\"id\":3,\"email\":\"emma.wong@reqres.in\",\"first_name\":\"Emma\",\"last_name\":\"Wong\",\"avatar\":\"https:\/\/reqres.in\/img\/faces\/3-image.jpg\"},{\"id\":4,\"email\":\"eve.holt@reqres.in\",\"first_name\":\"Eve\",\"last_name\":\"Holt\",\"avatar\":\"https:\/\/reqres.in\/img\/faces\/4-image.jpg\"},{\"id\":5,\"email\":\"charles.morris@reqres.in\",\"first_name\":\"Charles\",\"last_name\":\"Morris\",\"avatar\":\"https:\/\/reqres.in\/img\/faces\/5-image.jpg\"},{\"id\":6,\"email\":\"tracey.ramos@reqres.in\",\"first_name\":\"Tracey\",\"last_name\":\"Ramos\",\"avatar\":\"https:\/\/reqres.in\/img\/faces\/6-image.jpg\"}],\"support\":{\"url\":\"https:\/\/reqres.in\/#support-heading\",\"text\":\"To keep ReqRes free, contributions towards server costs are appreciated!\"},\"page\":1,\"per_page\":6,\"total\":12,\"total_pages\":2}\n\n\nsrc\/test\/java\/users\/patch\/user-patch.feature:41\n"}],"line":34,"description":"","durationMillis":1041.0649,"failed":true,"error":"match failed: EQUALS\n  $ | not equal | actual does not contain key - 'page' (MAP:MAP)\n  {\"data\":{\"id\":10,\"email\":\"byron.fields@reqres.in\",\"first_name\":\"Byron\",\"last_name\":\"Fields\",\"avatar\":\"https:\/\/reqres.in\/img\/faces\/10-image.jpg\"},\"support\":{\"url\":\"https:\/\/reqres.in\/#support-heading\",\"text\":\"To keep ReqRes free, contributions towards server costs are appreciated!\"}}\n  {\"data\":[{\"id\":1,\"email\":\"george.bluth@reqres.in\",\"first_name\":\"George\",\"last_name\":\"Bluth\",\"avatar\":\"https:\/\/reqres.in\/img\/faces\/1-image.jpg\"},{\"id\":2,\"email\":\"janet.weaver@reqres.in\",\"first_name\":\"Janet\",\"last_name\":\"Weaver\",\"avatar\":\"https:\/\/reqres.in\/img\/faces\/2-image.jpg\"},{\"id\":3,\"email\":\"emma.wong@reqres.in\",\"first_name\":\"Emma\",\"last_name\":\"Wong\",\"avatar\":\"https:\/\/reqres.in\/img\/faces\/3-image.jpg\"},{\"id\":4,\"email\":\"eve.holt@reqres.in\",\"first_name\":\"Eve\",\"last_name\":\"Holt\",\"avatar\":\"https:\/\/reqres.in\/img\/faces\/4-image.jpg\"},{\"id\":5,\"email\":\"charles.morris@reqres.in\",\"first_name\":\"Charles\",\"last_name\":\"Morris\",\"avatar\":\"https:\/\/reqres.in\/img\/faces\/5-image.jpg\"},{\"id\":6,\"email\":\"tracey.ramos@reqres.in\",\"first_name\":\"Tracey\",\"last_name\":\"Ramos\",\"avatar\":\"https:\/\/reqres.in\/img\/faces\/6-image.jpg\"}],\"support\":{\"url\":\"https:\/\/reqres.in\/#support-heading\",\"text\":\"To keep ReqRes free, contributions towards server costs are appreciated!\"},\"page\":1,\"per_page\":6,\"total\":12,\"total_pages\":2}\n\n\nsrc\/test\/java\/users\/patch\/user-patch.feature:41","executorName":"main","name":"Get a list of user with file","startTime":1690530630201,"refId":"[7:34]","endTime":1690530631252,"exampleIndex":-1}],"callDepth":0,"name":"Patch user regres","description":"","resultDate":"2023-07-28 09:50:31 AM","durationMillis":1041.0649,"passedCount":0}