{"failedCount":1,"prefixedPath":"src\/test\/java\/users\/get\/user-get.feature","packageQualifiedName":"src.test.java.users.get.user-get","loopIndex":-1,"relativePath":"src\/test\/java\/users\/get\/user-get.feature","scenarioResults":[{"sectionIndex":7,"stepResults":[{"result":{"nanos":45948100,"millis":45.9481,"status":"passed"},"step":{"line":49,"prefix":"Given","index":0,"text":"url \"https:\/\/reqres.in\/api\/login\""}},{"result":{"nanos":686522400,"millis":686.5224,"status":"passed"},"step":{"line":50,"prefix":"When","index":1,"text":"method GET"},"stepLog":"14:56:39.371 request:\n1 > GET https:\/\/reqres.in\/api\/login\n1 > Host: reqres.in\n1 > Connection: Keep-Alive\n1 > User-Agent: Apache-HttpClient\/4.5.13 (Java\/1.8.0_321)\n1 > Accept-Encoding: gzip,deflate\n\n\n14:56:39.553 response time in milliseconds: 180\n1 < 200\n1 < Date: Fri, 28 Jul 2023 12:56:39 GMT\n1 < Content-Type: application\/json; charset=utf-8\n1 < Transfer-Encoding: chunked\n1 < Connection: keep-alive\n1 < X-Powered-By: Express\n1 < Access-Control-Allow-Origin: *\n1 < Etag: W\/\"2c1-N6Rqerxquq2kgQhL51EiSg4x0R8\"\n1 < Via: 1.1 vegur\n1 < Cache-Control: max-age=14400\n1 < CF-Cache-Status: HIT\n1 < Age: 266\n1 < Report-To: {\"endpoints\":[{\"url\":\"https:\\\/\\\/a.nel.cloudflare.com\\\/report\\\/v3?s=dp%2F5TwBhrADl8TjlA1Ap%2BOoiYpGAr156flzvuEpZpw2sMFJv43W0mkS%2FnjkVOxwSAhzkvFe7w2gmx%2BLvlkDoa5OKxTC5EhlCEHUGc961Hdv4VRDkHM19n83O2Q%3D%3D\"}],\"group\":\"cf-nel\",\"max_age\":604800}\n1 < NEL: {\"success_fraction\":0,\"report_to\":\"cf-nel\",\"max_age\":604800}\n1 < Vary: Accept-Encoding\n1 < Server: cloudflare\n1 < CF-RAY: 7edd488f2b926675-MAD\n{\"page\":1,\"per_page\":6,\"total\":12,\"total_pages\":2,\"data\":[{\"id\":1,\"name\":\"cerulean\",\"year\":2000,\"color\":\"#98B2D1\",\"pantone_value\":\"15-4020\"},{\"id\":2,\"name\":\"fuchsia rose\",\"year\":2001,\"color\":\"#C74375\",\"pantone_value\":\"17-2031\"},{\"id\":3,\"name\":\"true red\",\"year\":2002,\"color\":\"#BF1932\",\"pantone_value\":\"19-1664\"},{\"id\":4,\"name\":\"aqua sky\",\"year\":2003,\"color\":\"#7BC4C4\",\"pantone_value\":\"14-4811\"},{\"id\":5,\"name\":\"tigerlily\",\"year\":2004,\"color\":\"#E2583E\",\"pantone_value\":\"17-1456\"},{\"id\":6,\"name\":\"blue turquoise\",\"year\":2005,\"color\":\"#53B0AE\",\"pantone_value\":\"15-5217\"}],\"support\":{\"url\":\"https:\/\/reqres.in\/#support-heading\",\"text\":\"To keep ReqRes free, contributions towards server costs are appreciated!\"}}\n\n"},{"result":{"nanos":14000,"millis":0.014,"status":"passed"},"step":{"line":51,"prefix":"Then","index":2,"text":"status 200"}},{"result":{"nanos":34036900,"errorMessage":"js failed:\n>>>>\n01: jsonResponse\n<<<<\norg.graalvm.polyglot.PolyglotException: ReferenceError: \"jsonResponse\" is not defined\n- <js>.:program(Unnamed:1)\n\nsrc\/test\/java\/users\/get\/user-get.feature:52","millis":34.0369,"status":"failed"},"step":{"line":52,"prefix":"And","index":3,"text":"match $ == jsonResponse"},"stepLog":"14:56:39.607 src\/test\/java\/users\/get\/user-get.feature:52\nAnd match $ == jsonResponse\njs failed:\n>>>>\n01: jsonResponse\n<<<<\norg.graalvm.polyglot.PolyglotException: ReferenceError: \"jsonResponse\" is not defined\n- <js>.:program(Unnamed:1)\n\nsrc\/test\/java\/users\/get\/user-get.feature:52\n"}],"line":48,"description":"","durationMillis":766.5214,"failed":true,"error":"js failed:\n>>>>\n01: jsonResponse\n<<<<\norg.graalvm.polyglot.PolyglotException: ReferenceError: \"jsonResponse\" is not defined\n- <js>.:program(Unnamed:1)\n\nsrc\/test\/java\/users\/get\/user-get.feature:52","executorName":"main","name":"Post login succeful with response","startTime":1690548998831,"refId":"[8:48]","endTime":1690548999607,"exampleIndex":-1}],"callDepth":0,"name":"Get user regres","description":"","resultDate":"2023-07-28 02:56:39 PM","durationMillis":766.5214,"passedCount":0}