{"failedCount":0,"prefixedPath":"src\/test\/java\/users\/get\/user-get.feature","packageQualifiedName":"src.test.java.users.get.user-get","loopIndex":-1,"relativePath":"src\/test\/java\/users\/get\/user-get.feature","scenarioResults":[{"sectionIndex":11,"stepResults":[{"result":{"nanos":111300300,"millis":111.3003,"status":"passed"},"step":{"line":72,"prefix":"*","index":0,"text":"def jsonResponse = read('..\/json\/list_of_users.json')"}},{"result":{"nanos":3733900,"millis":3.7339,"status":"passed"},"step":{"line":73,"prefix":"Given","index":1,"text":"url \"https:\/\/reqres.in\" + \"\/api\/users?\/delay\/\" + \"1\""}},{"result":{"nanos":887162500,"millis":887.1625,"status":"passed"},"step":{"line":74,"prefix":"When","index":2,"text":"method get"},"stepLog":"23:05:24.296 request:\n1 > GET https:\/\/reqres.in\/api\/users?\/delay\/1\n1 > Host: reqres.in\n1 > Connection: Keep-Alive\n1 > User-Agent: Apache-HttpClient\/4.5.13 (Java\/1.8.0_321)\n1 > Accept-Encoding: gzip,deflate\n\n\n23:05:24.699 response time in milliseconds: 402\n1 < 200\n1 < Date: Fri, 28 Jul 2023 21:05:24 GMT\n1 < Content-Type: application\/json; charset=utf-8\n1 < Transfer-Encoding: chunked\n1 < Connection: keep-alive\n1 < X-Powered-By: Express\n1 < Access-Control-Allow-Origin: *\n1 < Etag: W\/\"3e4-2RLXvr5wTg9YQ6aH95CkYoFNuO8\"\n1 < Via: 1.1 vegur\n1 < Cache-Control: max-age=14400\n1 < CF-Cache-Status: MISS\n1 < Report-To: {\"endpoints\":[{\"url\":\"https:\\\/\\\/a.nel.cloudflare.com\\\/report\\\/v3?s=L4%2FyynBNCUx77ehQz%2B04D2XkShvNJ7iQsOTWmJJbTrhuwPAmR1SKm1USju7oG4LbeP3dN5%2F4lpI2KyiCoyWuexxB%2B3BfFWRVLVpRpGtw%2F%2BV%2FwVXQcEagN4ZLjA%3D%3D\"}],\"group\":\"cf-nel\",\"max_age\":604800}\n1 < NEL: {\"success_fraction\":0,\"report_to\":\"cf-nel\",\"max_age\":604800}\n1 < Vary: Accept-Encoding\n1 < Server: cloudflare\n1 < CF-RAY: 7ee01480aadcff24-MAD\n{\"page\":1,\"per_page\":6,\"total\":12,\"total_pages\":2,\"data\":[{\"id\":1,\"email\":\"george.bluth@reqres.in\",\"first_name\":\"George\",\"last_name\":\"Bluth\",\"avatar\":\"https:\/\/reqres.in\/img\/faces\/1-image.jpg\"},{\"id\":2,\"email\":\"janet.weaver@reqres.in\",\"first_name\":\"Janet\",\"last_name\":\"Weaver\",\"avatar\":\"https:\/\/reqres.in\/img\/faces\/2-image.jpg\"},{\"id\":3,\"email\":\"emma.wong@reqres.in\",\"first_name\":\"Emma\",\"last_name\":\"Wong\",\"avatar\":\"https:\/\/reqres.in\/img\/faces\/3-image.jpg\"},{\"id\":4,\"email\":\"eve.holt@reqres.in\",\"first_name\":\"Eve\",\"last_name\":\"Holt\",\"avatar\":\"https:\/\/reqres.in\/img\/faces\/4-image.jpg\"},{\"id\":5,\"email\":\"charles.morris@reqres.in\",\"first_name\":\"Charles\",\"last_name\":\"Morris\",\"avatar\":\"https:\/\/reqres.in\/img\/faces\/5-image.jpg\"},{\"id\":6,\"email\":\"tracey.ramos@reqres.in\",\"first_name\":\"Tracey\",\"last_name\":\"Ramos\",\"avatar\":\"https:\/\/reqres.in\/img\/faces\/6-image.jpg\"}],\"support\":{\"url\":\"https:\/\/reqres.in\/#support-heading\",\"text\":\"To keep ReqRes free, contributions towards server costs are appreciated!\"}}\n\n"},{"result":{"nanos":10000,"millis":0.01,"status":"passed"},"step":{"line":75,"prefix":"Then","index":3,"text":"status 200"}},{"result":{"nanos":10866600,"millis":10.8666,"status":"passed"},"step":{"line":76,"prefix":"And","index":4,"text":"match $ == jsonResponse"}},{"result":{"nanos":1138100,"millis":1.1381,"status":"passed"},"step":{"line":77,"prefix":"And","index":5,"text":"match $ == read('..\/json\/list_of_users.json')"}}],"executorName":"main","line":71,"name":"Get a delayed with response and file json","description":"","durationMillis":1014.2114,"startTime":1690578323689,"failed":false,"refId":"[12:71]","endTime":1690578324715,"exampleIndex":-1}],"callDepth":0,"name":"Get user regres","description":"","resultDate":"2023-07-28 11:05:24 PM","durationMillis":1014.2114,"passedCount":1}