{"failedCount":0,"prefixedPath":"src\/test\/java\/users\/erros\/errors.users.get.feature","packageQualifiedName":"src.test.java.users.erros.errors.users.get","loopIndex":-1,"relativePath":"src\/test\/java\/users\/erros\/errors.users.get.feature","scenarioResults":[{"sectionIndex":1,"stepResults":[{"result":{"nanos":105219400,"millis":105.2194,"status":"passed"},"step":{"line":9,"prefix":"*","index":0,"text":"def jsonResponse = read('..\/json\/login2_get.json')"}},{"result":{"nanos":1045500,"millis":1.0455,"status":"passed"},"step":{"line":10,"prefix":"Given","index":1,"text":"url \"https:\/\/reqres.in\/api\/login\""}},{"result":{"nanos":848309200,"millis":848.3092,"status":"passed"},"step":{"line":11,"prefix":"When","index":2,"text":"method GET"},"stepLog":"15:23:06.137 request:\n1 > GET https:\/\/reqres.in\/api\/login\n1 > Host: reqres.in\n1 > Connection: Keep-Alive\n1 > User-Agent: Apache-HttpClient\/4.5.13 (Java\/1.8.0_321)\n1 > Accept-Encoding: gzip,deflate\n\n\n15:23:06.521 response time in milliseconds: 290\n1 < 200\n1 < Date: Fri, 28 Jul 2023 13:23:06 GMT\n1 < Content-Type: application\/json; charset=utf-8\n1 < Transfer-Encoding: chunked\n1 < Connection: keep-alive\n1 < X-Powered-By: Express\n1 < Access-Control-Allow-Origin: *\n1 < Etag: W\/\"2c1-N6Rqerxquq2kgQhL51EiSg4x0R8\"\n1 < Via: 1.1 vegur\n1 < Cache-Control: max-age=14400\n1 < CF-Cache-Status: REVALIDATED\n1 < Report-To: {\"endpoints\":[{\"url\":\"https:\\\/\\\/a.nel.cloudflare.com\\\/report\\\/v3?s=7XGyRFCrS%2B5tMa2J%2B8PvRGsN9HV2wmwU8JRh5dz5d1tIl%2F9VAX6wj27twNRFQgXlYykLfo9flK%2BO1mda4Ozk7S7r6lHsxgor72cofPRLaq0TjIHlRzagna%2FVyQ%3D%3D\"}],\"group\":\"cf-nel\",\"max_age\":604800}\n1 < NEL: {\"success_fraction\":0,\"report_to\":\"cf-nel\",\"max_age\":604800}\n1 < Vary: Accept-Encoding\n1 < Server: cloudflare\n1 < CF-RAY: 7edd6f4c7f401bbe-MAD\n{\"page\":1,\"per_page\":6,\"total\":12,\"total_pages\":2,\"data\":[{\"id\":1,\"name\":\"cerulean\",\"year\":2000,\"color\":\"#98B2D1\",\"pantone_value\":\"15-4020\"},{\"id\":2,\"name\":\"fuchsia rose\",\"year\":2001,\"color\":\"#C74375\",\"pantone_value\":\"17-2031\"},{\"id\":3,\"name\":\"true red\",\"year\":2002,\"color\":\"#BF1932\",\"pantone_value\":\"19-1664\"},{\"id\":4,\"name\":\"aqua sky\",\"year\":2003,\"color\":\"#7BC4C4\",\"pantone_value\":\"14-4811\"},{\"id\":5,\"name\":\"tigerlily\",\"year\":2004,\"color\":\"#E2583E\",\"pantone_value\":\"17-1456\"},{\"id\":6,\"name\":\"blue turquoise\",\"year\":2005,\"color\":\"#53B0AE\",\"pantone_value\":\"15-5217\"}],\"support\":{\"url\":\"https:\/\/reqres.in\/#support-heading\",\"text\":\"To keep ReqRes free, contributions towards server costs are appreciated!\"}}\n\n"},{"result":{"nanos":14600,"millis":0.0146,"status":"passed"},"step":{"line":12,"prefix":"Then","index":3,"text":"status 200"}},{"result":{"nanos":12773500,"millis":12.7735,"status":"passed"},"step":{"line":13,"prefix":"And","index":4,"text":"match $ == jsonResponse"}},{"result":{"nanos":1287800,"millis":1.2878,"status":"passed"},"step":{"line":14,"prefix":"And","index":5,"text":"match $ == read('..\/json\/login2_get.json')"}}],"executorName":"main","line":8,"name":"Get errors login unsuccesful regres with respose","description":"","durationMillis":968.65,"startTime":1690550585563,"failed":false,"refId":"[2:8]","endTime":1690550586540,"exampleIndex":-1}],"callDepth":0,"name":"Get errors login unsuccesful regres","description":"","resultDate":"2023-07-28 03:23:06 PM","durationMillis":968.65,"passedCount":1}