{"failedCount":3,"prefixedPath":"src\/test\/java\/users\/get\/user-get.feature","packageQualifiedName":"src.test.java.users.get.user-get","loopIndex":-1,"relativePath":"src\/test\/java\/users\/get\/user-get.feature","scenarioResults":[{"sectionIndex":0,"stepResults":[{"result":{"nanos":114712300,"millis":114.7123,"status":"passed"},"step":{"line":4,"prefix":"Given","index":0,"text":"url \"https:\/\/reqres.in\" + \"\/api\/users\/\" + \"1\""}},{"result":{"nanos":1444948800,"millis":1444.9488,"status":"passed"},"step":{"line":5,"prefix":"When","index":1,"text":"method get"},"stepLog":"09:43:37.244 request:\n1 > GET https:\/\/reqres.in\/api\/users\/1\n1 > Host: reqres.in\n1 > Connection: Keep-Alive\n1 > User-Agent: Apache-HttpClient\/4.5.13 (Java\/1.8.0_321)\n1 > Accept-Encoding: gzip,deflate\n\n\n09:43:37.618 response time in milliseconds: 369\n1 < 200\n1 < Date: Wed, 26 Jul 2023 07:43:37 GMT\n1 < Content-Type: application\/json; charset=utf-8\n1 < Transfer-Encoding: chunked\n1 < Connection: keep-alive\n1 < X-Powered-By: Express\n1 < Access-Control-Allow-Origin: *\n1 < Etag: W\/\"118-P3iKcVpIgCj9HqYeOOrGLX8qJVc\"\n1 < Via: 1.1 vegur\n1 < Cache-Control: max-age=14400\n1 < CF-Cache-Status: HIT\n1 < Age: 1810\n1 < Report-To: {\"endpoints\":[{\"url\":\"https:\\\/\\\/a.nel.cloudflare.com\\\/report\\\/v3?s=kcZM%2FCZT7NwqdjYAII9DrwMhznPFbAnoPH%2FZLtfhtZLZsibr6ABdpalKdHkdjZxrv5LcjhbbrsYC%2FYhAQvPBflao4Re5K2N5L9sI%2B53GaFQmcNRCLjxkqG6JGQ%3D%3D\"}],\"group\":\"cf-nel\",\"max_age\":604800}\n1 < NEL: {\"success_fraction\":0,\"report_to\":\"cf-nel\",\"max_age\":604800}\n1 < Vary: Accept-Encoding\n1 < Server: cloudflare\n1 < CF-RAY: 7ecb03446aab8684-MAD\n{\"data\":{\"id\":1,\"email\":\"george.bluth@reqres.in\",\"first_name\":\"George\",\"last_name\":\"Bluth\",\"avatar\":\"https:\/\/reqres.in\/img\/faces\/1-image.jpg\"},\"support\":{\"url\":\"https:\/\/reqres.in\/#support-heading\",\"text\":\"To keep ReqRes free, contributions towards server costs are appreciated!\"}}\n\n"},{"result":{"nanos":32600,"millis":0.0326,"status":"passed"},"step":{"line":6,"prefix":"Then","index":2,"text":"status 200"}}],"executorName":"main","line":3,"name":"Get a user","description":"","durationMillis":1559.6937,"startTime":1690357416072,"failed":false,"refId":"[1:3]","endTime":1690357417653,"exampleIndex":-1},{"sectionIndex":1,"stepResults":[{"result":{"nanos":1074500,"millis":1.0745,"status":"passed"},"step":{"line":9,"prefix":"Given","index":0,"text":"url \"https:\/\/reqres.in\" + \"\/api\/users\/\" + \"2\""}},{"result":{"nanos":96733500,"millis":96.7335,"status":"passed"},"step":{"line":10,"prefix":"When","index":1,"text":"method get"},"stepLog":"09:43:37.670 request:\n1 > GET https:\/\/reqres.in\/api\/users\/2\n1 > Host: reqres.in\n1 > Connection: Keep-Alive\n1 > User-Agent: Apache-HttpClient\/4.5.13 (Java\/1.8.0_321)\n1 > Accept-Encoding: gzip,deflate\n\n\n09:43:37.763 response time in milliseconds: 92\n1 < 200\n1 < Date: Wed, 26 Jul 2023 07:43:37 GMT\n1 < Content-Type: application\/json; charset=utf-8\n1 < Transfer-Encoding: chunked\n1 < Connection: keep-alive\n1 < X-Powered-By: Express\n1 < Access-Control-Allow-Origin: *\n1 < Etag: W\/\"118-pbdwwFo9SKNhD3Lx5iHJyngpq00\"\n1 < Via: 1.1 vegur\n1 < Cache-Control: max-age=14400\n1 < CF-Cache-Status: HIT\n1 < Age: 388\n1 < Report-To: {\"endpoints\":[{\"url\":\"https:\\\/\\\/a.nel.cloudflare.com\\\/report\\\/v3?s=%2BrkhYOhBhfqY7K2ekGamCNCCfVT4YeObpgzcsiWMC6PrktblSuhwJS1Ujc2Zohb3YG06JqylhZtiwaAFJDH82tenfjibzWhVUblrZPWSCouGMCY8fc4FBTIVyA%3D%3D\"}],\"group\":\"cf-nel\",\"max_age\":604800}\n1 < NEL: {\"success_fraction\":0,\"report_to\":\"cf-nel\",\"max_age\":604800}\n1 < Vary: Accept-Encoding\n1 < Server: cloudflare\n1 < CF-RAY: 7ecb03456fa32fc7-MAD\n{\"data\":{\"id\":2,\"email\":\"janet.weaver@reqres.in\",\"first_name\":\"Janet\",\"last_name\":\"Weaver\",\"avatar\":\"https:\/\/reqres.in\/img\/faces\/2-image.jpg\"},\"support\":{\"url\":\"https:\/\/reqres.in\/#support-heading\",\"text\":\"To keep ReqRes free, contributions towards server costs are appreciated!\"}}\n\n"},{"result":{"nanos":15200,"millis":0.0152,"status":"passed"},"step":{"line":11,"prefix":"Then","index":2,"text":"status 200"}}],"executorName":"main","line":8,"name":"Get a user","description":"","durationMillis":97.8232,"startTime":1690357417666,"failed":false,"refId":"[2:8]","endTime":1690357417765,"exampleIndex":-1},{"sectionIndex":2,"stepResults":[{"result":{"nanos":1351700,"millis":1.3517,"status":"passed"},"step":{"line":14,"prefix":"Given","index":0,"text":"url \"https:\/\/reqres.in\" + \"\/api\/users\/\" + \"3\""}},{"result":{"nanos":190449700,"millis":190.4497,"status":"passed"},"step":{"line":15,"prefix":"When","index":1,"text":"method get"},"stepLog":"09:43:37.779 request:\n1 > GET https:\/\/reqres.in\/api\/users\/3\n1 > Host: reqres.in\n1 > Connection: Keep-Alive\n1 > User-Agent: Apache-HttpClient\/4.5.13 (Java\/1.8.0_321)\n1 > Accept-Encoding: gzip,deflate\n\n\n09:43:37.967 response time in milliseconds: 187\n1 < 200\n1 < Date: Wed, 26 Jul 2023 07:43:38 GMT\n1 < Content-Type: application\/json; charset=utf-8\n1 < Transfer-Encoding: chunked\n1 < Connection: keep-alive\n1 < X-Powered-By: Express\n1 < Access-Control-Allow-Origin: *\n1 < Etag: W\/\"112-EeInfgHWtnxhYRnwgZUB667e024\"\n1 < Via: 1.1 vegur\n1 < Cache-Control: max-age=14400\n1 < CF-Cache-Status: REVALIDATED\n1 < Report-To: {\"endpoints\":[{\"url\":\"https:\\\/\\\/a.nel.cloudflare.com\\\/report\\\/v3?s=M1QUCkoDkrfgJpjUQk030rejDL4eC3%2BLoOyLws0BBmPQ1NI7G0FbDGbe8tYFkKNqwH9otOQnmmzctI%2BsAygNxN2nBBYymWPvrfGcUe1xrTW0W2va7%2FBo5mgugA%3D%3D\"}],\"group\":\"cf-nel\",\"max_age\":604800}\n1 < NEL: {\"success_fraction\":0,\"report_to\":\"cf-nel\",\"max_age\":604800}\n1 < Vary: Accept-Encoding\n1 < Server: cloudflare\n1 < CF-RAY: 7ecb034608742195-MAD\n{\"data\":{\"id\":3,\"email\":\"emma.wong@reqres.in\",\"first_name\":\"Emma\",\"last_name\":\"Wong\",\"avatar\":\"https:\/\/reqres.in\/img\/faces\/3-image.jpg\"},\"support\":{\"url\":\"https:\/\/reqres.in\/#support-heading\",\"text\":\"To keep ReqRes free, contributions towards server costs are appreciated!\"}}\n\n"},{"result":{"nanos":11700,"millis":0.0117,"status":"passed"},"step":{"line":16,"prefix":"Then","index":2,"text":"status 200"}}],"executorName":"main","line":13,"name":"Get a user","description":"","durationMillis":191.8131,"startTime":1690357417775,"failed":false,"refId":"[3:13]","endTime":1690357417968,"exampleIndex":-1},{"sectionIndex":3,"stepResults":[{"result":{"nanos":930300,"millis":0.9303,"status":"passed"},"step":{"line":19,"prefix":"Given","index":0,"text":"url \"https:\/\/reqres.in\/api\/users?page=1\""}},{"result":{"nanos":196818900,"millis":196.8189,"status":"passed"},"step":{"line":20,"prefix":"When","index":1,"text":"method get"},"stepLog":"09:43:37.976 request:\n1 > GET https:\/\/reqres.in\/api\/users?page=1\n1 > Host: reqres.in\n1 > Connection: Keep-Alive\n1 > User-Agent: Apache-HttpClient\/4.5.13 (Java\/1.8.0_321)\n1 > Accept-Encoding: gzip,deflate\n\n\n09:43:38.169 response time in milliseconds: 193\n1 < 200\n1 < Date: Wed, 26 Jul 2023 07:43:38 GMT\n1 < Content-Type: application\/json; charset=utf-8\n1 < Transfer-Encoding: chunked\n1 < Connection: keep-alive\n1 < X-Powered-By: Express\n1 < Access-Control-Allow-Origin: *\n1 < Etag: W\/\"3e4-2RLXvr5wTg9YQ6aH95CkYoFNuO8\"\n1 < Via: 1.1 vegur\n1 < Cache-Control: max-age=14400\n1 < CF-Cache-Status: REVALIDATED\n1 < Report-To: {\"endpoints\":[{\"url\":\"https:\\\/\\\/a.nel.cloudflare.com\\\/report\\\/v3?s=Ra6Wq2prUHjp%2BtKRtBvIu715zxbaulELEbKyZskSyrqICLz9ildRlp61sRzT4ZYDwj3Sz1x2wy8TrTYblqR9s4h9AKTFp29Z7xVVqLl%2BZnV0JvN6FPMpuWLjQg%3D%3D\"}],\"group\":\"cf-nel\",\"max_age\":604800}\n1 < NEL: {\"success_fraction\":0,\"report_to\":\"cf-nel\",\"max_age\":604800}\n1 < Vary: Accept-Encoding\n1 < Server: cloudflare\n1 < CF-RAY: 7ecb03477e0f86c8-MAD\n{\"page\":1,\"per_page\":6,\"total\":12,\"total_pages\":2,\"data\":[{\"id\":1,\"email\":\"george.bluth@reqres.in\",\"first_name\":\"George\",\"last_name\":\"Bluth\",\"avatar\":\"https:\/\/reqres.in\/img\/faces\/1-image.jpg\"},{\"id\":2,\"email\":\"janet.weaver@reqres.in\",\"first_name\":\"Janet\",\"last_name\":\"Weaver\",\"avatar\":\"https:\/\/reqres.in\/img\/faces\/2-image.jpg\"},{\"id\":3,\"email\":\"emma.wong@reqres.in\",\"first_name\":\"Emma\",\"last_name\":\"Wong\",\"avatar\":\"https:\/\/reqres.in\/img\/faces\/3-image.jpg\"},{\"id\":4,\"email\":\"eve.holt@reqres.in\",\"first_name\":\"Eve\",\"last_name\":\"Holt\",\"avatar\":\"https:\/\/reqres.in\/img\/faces\/4-image.jpg\"},{\"id\":5,\"email\":\"charles.morris@reqres.in\",\"first_name\":\"Charles\",\"last_name\":\"Morris\",\"avatar\":\"https:\/\/reqres.in\/img\/faces\/5-image.jpg\"},{\"id\":6,\"email\":\"tracey.ramos@reqres.in\",\"first_name\":\"Tracey\",\"last_name\":\"Ramos\",\"avatar\":\"https:\/\/reqres.in\/img\/faces\/6-image.jpg\"}],\"support\":{\"url\":\"https:\/\/reqres.in\/#support-heading\",\"text\":\"To keep ReqRes free, contributions towards server costs are appreciated!\"}}\n\n"},{"result":{"nanos":16500,"millis":0.0165,"status":"passed"},"step":{"line":21,"prefix":"Then","index":2,"text":"status 200"}},{"result":{"nanos":74145000,"millis":74.145,"status":"passed"},"step":{"line":22,"prefix":"And","index":3,"text":"match $ == {\"page\":1,\"per_page\":6,\"total\":12,\"total_pages\":2,\"data\":[{\"id\":1,\"email\":\"george.bluth@reqres.in\",\"first_name\":\"George\",\"last_name\":\"Bluth\",\"avatar\":\"https:\/\/reqres.in\/img\/faces\/1-image.jpg\"},{\"id\":2,\"email\":\"janet.weaver@reqres.in\",\"first_name\":\"Janet\",\"last_name\":\"Weaver\",\"avatar\":\"https:\/\/reqres.in\/img\/faces\/2-image.jpg\"},{\"id\":3,\"email\":\"emma.wong@reqres.in\",\"first_name\":\"Emma\",\"last_name\":\"Wong\",\"avatar\":\"https:\/\/reqres.in\/img\/faces\/3-image.jpg\"},{\"id\":4,\"email\":\"eve.holt@reqres.in\",\"first_name\":\"Eve\",\"last_name\":\"Holt\",\"avatar\":\"https:\/\/reqres.in\/img\/faces\/4-image.jpg\"},{\"id\":5,\"email\":\"charles.morris@reqres.in\",\"first_name\":\"Charles\",\"last_name\":\"Morris\",\"avatar\":\"https:\/\/reqres.in\/img\/faces\/5-image.jpg\"},{\"id\":6,\"email\":\"tracey.ramos@reqres.in\",\"first_name\":\"Tracey\",\"last_name\":\"Ramos\",\"avatar\":\"https:\/\/reqres.in\/img\/faces\/6-image.jpg\"}],\"support\":{\"url\":\"https:\/\/reqres.in\/#support-heading\",\"text\":\"To keep ReqRes free, contributions towards server costs are appreciated!\"}}"}}],"executorName":"main","line":18,"name":"Get a list of user","description":"","durationMillis":271.9107,"startTime":1690357417973,"failed":false,"refId":"[4:18]","endTime":1690357418248,"exampleIndex":-1},{"sectionIndex":4,"stepResults":[{"result":{"nanos":293620600,"errorMessage":"js failed:\n>>>>\n01: read('..\/json\/list_of_users.json')\n<<<<\norg.graalvm.polyglot.PolyglotException: java.io.FileNotFoundException: C:\\Cursos_AT\\Automatizacion\\Karate\\curso_basico_karate\\src\\test\\java\\users\\get\\..\\json\\list_of_users.json (El sistema no puede encontrar la ruta especificada)\n- com.intuit.karate.resource.FileResource.getStream(FileResource.java:98)\n- com.intuit.karate.core.ScenarioFileReader.readFileAsStream(ScenarioFileReader.java:102)\n- com.intuit.karate.core.ScenarioFileReader.readFileAsString(ScenarioFileReader.java:98)\n- com.intuit.karate.core.ScenarioFileReader.readFile(ScenarioFileReader.java:56)\n- com.intuit.karate.core.ScenarioEngine.lambda$new$0(ScenarioEngine.java:129)\n- <js>.:program(Unnamed:1)\n\nsrc\/test\/java\/users\/get\/user-get.feature:26","millis":293.6206,"status":"failed"},"step":{"line":26,"prefix":"*","index":0,"text":"def jsonResponse = read('..\/json\/list_of_users.json')"},"stepLog":"09:43:38.549 src\/test\/java\/users\/get\/user-get.feature:26\n* def jsonResponse = read('..\/json\/list_of_users.json')\njs failed:\n>>>>\n01: read('..\/json\/list_of_users.json')\n<<<<\norg.graalvm.polyglot.PolyglotException: java.io.FileNotFoundException: C:\\Cursos_AT\\Automatizacion\\Karate\\curso_basico_karate\\src\\test\\java\\users\\get\\..\\json\\list_of_users.json (El sistema no puede encontrar la ruta especificada)\n- com.intuit.karate.resource.FileResource.getStream(FileResource.java:98)\n- com.intuit.karate.core.ScenarioFileReader.readFileAsStream(ScenarioFileReader.java:102)\n- com.intuit.karate.core.ScenarioFileReader.readFileAsString(ScenarioFileReader.java:98)\n- com.intuit.karate.core.ScenarioFileReader.readFile(ScenarioFileReader.java:56)\n- com.intuit.karate.core.ScenarioEngine.lambda$new$0(ScenarioEngine.java:129)\n- <js>.:program(Unnamed:1)\n\nsrc\/test\/java\/users\/get\/user-get.feature:26\n"},{"result":{"nanos":0,"millis":0.0,"status":"skipped"},"step":{"line":27,"prefix":"Given","index":1,"text":"url \"https:\/\/reqres.in\/api\/users?page=1\""}},{"result":{"nanos":0,"millis":0.0,"status":"skipped"},"step":{"line":28,"prefix":"When","index":2,"text":"method get"}},{"result":{"nanos":0,"millis":0.0,"status":"skipped"},"step":{"line":29,"prefix":"Then","index":3,"text":"status 200"}},{"result":{"nanos":0,"millis":0.0,"status":"skipped"},"step":{"line":30,"prefix":"And","index":4,"text":"match $ == {\"page\":1,\"per_page\":6,\"total\":12,\"total_pages\":2,\"data\":[{\"id\":1,\"email\":\"george.bluth@reqres.in\",\"first_name\":\"George\",\"last_name\":\"Bluth\",\"avatar\":\"https:\/\/reqres.in\/img\/faces\/1-image.jpg\"},{\"id\":2,\"email\":\"janet.weaver@reqres.in\",\"first_name\":\"Janet\",\"last_name\":\"Weaver\",\"avatar\":\"https:\/\/reqres.in\/img\/faces\/2-image.jpg\"},{\"id\":3,\"email\":\"emma.wong@reqres.in\",\"first_name\":\"Emma\",\"last_name\":\"Wong\",\"avatar\":\"https:\/\/reqres.in\/img\/faces\/3-image.jpg\"},{\"id\":4,\"email\":\"eve.holt@reqres.in\",\"first_name\":\"Eve\",\"last_name\":\"Holt\",\"avatar\":\"https:\/\/reqres.in\/img\/faces\/4-image.jpg\"},{\"id\":5,\"email\":\"charles.morris@reqres.in\",\"first_name\":\"Charles\",\"last_name\":\"Morris\",\"avatar\":\"https:\/\/reqres.in\/img\/faces\/5-image.jpg\"},{\"id\":6,\"email\":\"tracey.ramos@reqres.in\",\"first_name\":\"Tracey\",\"last_name\":\"Ramos\",\"avatar\":\"https:\/\/reqres.in\/img\/faces\/6-image.jpg\"}],\"support\":{\"url\":\"https:\/\/reqres.in\/#support-heading\",\"text\":\"To keep ReqRes free, contributions towards server costs are appreciated!\"}}"}},{"result":{"nanos":0,"millis":0.0,"status":"skipped"},"step":{"line":31,"prefix":"And","index":5,"text":"match $ == jsonResponse"}},{"result":{"nanos":0,"millis":0.0,"status":"skipped"},"step":{"line":32,"prefix":"And","index":6,"text":"match $ == read('..\/json\/list_of_users.json')"}}],"line":25,"description":"","durationMillis":293.6206,"failed":true,"error":"js failed:\n>>>>\n01: read('..\/json\/list_of_users.json')\n<<<<\norg.graalvm.polyglot.PolyglotException: java.io.FileNotFoundException: C:\\Cursos_AT\\Automatizacion\\Karate\\curso_basico_karate\\src\\test\\java\\users\\get\\..\\json\\list_of_users.json (El sistema no puede encontrar la ruta especificada)\n- com.intuit.karate.resource.FileResource.getStream(FileResource.java:98)\n- com.intuit.karate.core.ScenarioFileReader.readFileAsStream(ScenarioFileReader.java:102)\n- com.intuit.karate.core.ScenarioFileReader.readFileAsString(ScenarioFileReader.java:98)\n- com.intuit.karate.core.ScenarioFileReader.readFile(ScenarioFileReader.java:56)\n- com.intuit.karate.core.ScenarioEngine.lambda$new$0(ScenarioEngine.java:129)\n- <js>.:program(Unnamed:1)\n\nsrc\/test\/java\/users\/get\/user-get.feature:26","executorName":"main","name":"Get a list of user with file","startTime":1690357418255,"refId":"[5:25]","endTime":1690357418549,"exampleIndex":-1},{"sectionIndex":5,"stepResults":[{"result":{"nanos":4380300,"errorMessage":"js failed:\n>>>>\n01: read('..\/json\/list2_of_users.json')\n<<<<\norg.graalvm.polyglot.PolyglotException: java.io.FileNotFoundException: C:\\Cursos_AT\\Automatizacion\\Karate\\curso_basico_karate\\src\\test\\java\\users\\get\\..\\json\\list2_of_users.json (El sistema no puede encontrar la ruta especificada)\n- com.intuit.karate.resource.FileResource.getStream(FileResource.java:98)\n- com.intuit.karate.core.ScenarioFileReader.readFileAsStream(ScenarioFileReader.java:102)\n- com.intuit.karate.core.ScenarioFileReader.readFileAsString(ScenarioFileReader.java:98)\n- com.intuit.karate.core.ScenarioFileReader.readFile(ScenarioFileReader.java:56)\n- com.intuit.karate.core.ScenarioEngine.lambda$new$0(ScenarioEngine.java:129)\n- <js>.:program(Unnamed:1)\n\nsrc\/test\/java\/users\/get\/user-get.feature:36","millis":4.3803,"status":"failed"},"step":{"line":36,"prefix":"*","index":0,"text":"def jsonResponse = read('..\/json\/list2_of_users.json')"},"stepLog":"09:43:38.564 src\/test\/java\/users\/get\/user-get.feature:36\n* def jsonResponse = read('..\/json\/list2_of_users.json')\njs failed:\n>>>>\n01: read('..\/json\/list2_of_users.json')\n<<<<\norg.graalvm.polyglot.PolyglotException: java.io.FileNotFoundException: C:\\Cursos_AT\\Automatizacion\\Karate\\curso_basico_karate\\src\\test\\java\\users\\get\\..\\json\\list2_of_users.json (El sistema no puede encontrar la ruta especificada)\n- com.intuit.karate.resource.FileResource.getStream(FileResource.java:98)\n- com.intuit.karate.core.ScenarioFileReader.readFileAsStream(ScenarioFileReader.java:102)\n- com.intuit.karate.core.ScenarioFileReader.readFileAsString(ScenarioFileReader.java:98)\n- com.intuit.karate.core.ScenarioFileReader.readFile(ScenarioFileReader.java:56)\n- com.intuit.karate.core.ScenarioEngine.lambda$new$0(ScenarioEngine.java:129)\n- <js>.:program(Unnamed:1)\n\nsrc\/test\/java\/users\/get\/user-get.feature:36\n"},{"result":{"nanos":0,"millis":0.0,"status":"skipped"},"step":{"line":37,"prefix":"Given","index":1,"text":"url \"https:\/\/reqres.in\/api\/users?page=1\""}},{"result":{"nanos":0,"millis":0.0,"status":"skipped"},"step":{"line":38,"prefix":"When","index":2,"text":"method get"}},{"result":{"nanos":0,"millis":0.0,"status":"skipped"},"step":{"line":39,"prefix":"Then","index":3,"text":"status 200"}},{"result":{"nanos":0,"millis":0.0,"status":"skipped"},"step":{"line":40,"prefix":"And","index":4,"text":"match $ == jsonResponse"}},{"result":{"nanos":0,"millis":0.0,"status":"skipped"},"step":{"line":41,"prefix":"And","index":5,"text":"match $ == read('..\/json\/list_of_users.json')"}}],"line":35,"description":"","durationMillis":4.3803,"failed":true,"error":"js failed:\n>>>>\n01: read('..\/json\/list2_of_users.json')\n<<<<\norg.graalvm.polyglot.PolyglotException: java.io.FileNotFoundException: C:\\Cursos_AT\\Automatizacion\\Karate\\curso_basico_karate\\src\\test\\java\\users\\get\\..\\json\\list2_of_users.json (El sistema no puede encontrar la ruta especificada)\n- com.intuit.karate.resource.FileResource.getStream(FileResource.java:98)\n- com.intuit.karate.core.ScenarioFileReader.readFileAsStream(ScenarioFileReader.java:102)\n- com.intuit.karate.core.ScenarioFileReader.readFileAsString(ScenarioFileReader.java:98)\n- com.intuit.karate.core.ScenarioFileReader.readFile(ScenarioFileReader.java:56)\n- com.intuit.karate.core.ScenarioEngine.lambda$new$0(ScenarioEngine.java:129)\n- <js>.:program(Unnamed:1)\n\nsrc\/test\/java\/users\/get\/user-get.feature:36","executorName":"main","name":"Get a list of user with file other data","startTime":1690357418559,"refId":"[6:35]","endTime":1690357418564,"exampleIndex":-1},{"sectionIndex":6,"stepResults":[{"result":{"nanos":2924500,"errorMessage":"js failed:\n>>>>\n01: read('..\/json\/not_found.json')\n<<<<\norg.graalvm.polyglot.PolyglotException: java.io.FileNotFoundException: C:\\Cursos_AT\\Automatizacion\\Karate\\curso_basico_karate\\src\\test\\java\\users\\get\\..\\json\\not_found.json (El sistema no puede encontrar la ruta especificada)\n- com.intuit.karate.resource.FileResource.getStream(FileResource.java:98)\n- com.intuit.karate.core.ScenarioFileReader.readFileAsStream(ScenarioFileReader.java:102)\n- com.intuit.karate.core.ScenarioFileReader.readFileAsString(ScenarioFileReader.java:98)\n- com.intuit.karate.core.ScenarioFileReader.readFile(ScenarioFileReader.java:56)\n- com.intuit.karate.core.ScenarioEngine.lambda$new$0(ScenarioEngine.java:129)\n- <js>.:program(Unnamed:1)\n\nsrc\/test\/java\/users\/get\/user-get.feature:45","millis":2.9245,"status":"failed"},"step":{"line":45,"prefix":"*","index":0,"text":"def jsonResponse = read('..\/json\/not_found.json')"},"stepLog":"09:43:38.576 src\/test\/java\/users\/get\/user-get.feature:45\n* def jsonResponse = read('..\/json\/not_found.json')\njs failed:\n>>>>\n01: read('..\/json\/not_found.json')\n<<<<\norg.graalvm.polyglot.PolyglotException: java.io.FileNotFoundException: C:\\Cursos_AT\\Automatizacion\\Karate\\curso_basico_karate\\src\\test\\java\\users\\get\\..\\json\\not_found.json (El sistema no puede encontrar la ruta especificada)\n- com.intuit.karate.resource.FileResource.getStream(FileResource.java:98)\n- com.intuit.karate.core.ScenarioFileReader.readFileAsStream(ScenarioFileReader.java:102)\n- com.intuit.karate.core.ScenarioFileReader.readFileAsString(ScenarioFileReader.java:98)\n- com.intuit.karate.core.ScenarioFileReader.readFile(ScenarioFileReader.java:56)\n- com.intuit.karate.core.ScenarioEngine.lambda$new$0(ScenarioEngine.java:129)\n- <js>.:program(Unnamed:1)\n\nsrc\/test\/java\/users\/get\/user-get.feature:45\n"},{"result":{"nanos":0,"millis":0.0,"status":"skipped"},"step":{"line":46,"prefix":"Given","index":1,"text":"url \"https:\/\/reqres.in\/api\/unknown\/23\""}},{"result":{"nanos":0,"millis":0.0,"status":"skipped"},"step":{"line":47,"prefix":"When","index":2,"text":"method get"}},{"result":{"nanos":0,"millis":0.0,"status":"skipped"},"step":{"line":48,"prefix":"Then","index":3,"text":"status 404"}},{"result":{"nanos":0,"millis":0.0,"status":"skipped"},"step":{"line":49,"prefix":"And","index":4,"text":"match $ == jsonResponse"}}],"line":44,"description":"","durationMillis":2.9245,"failed":true,"error":"js failed:\n>>>>\n01: read('..\/json\/not_found.json')\n<<<<\norg.graalvm.polyglot.PolyglotException: java.io.FileNotFoundException: C:\\Cursos_AT\\Automatizacion\\Karate\\curso_basico_karate\\src\\test\\java\\users\\get\\..\\json\\not_found.json (El sistema no puede encontrar la ruta especificada)\n- com.intuit.karate.resource.FileResource.getStream(FileResource.java:98)\n- com.intuit.karate.core.ScenarioFileReader.readFileAsStream(ScenarioFileReader.java:102)\n- com.intuit.karate.core.ScenarioFileReader.readFileAsString(ScenarioFileReader.java:98)\n- com.intuit.karate.core.ScenarioFileReader.readFile(ScenarioFileReader.java:56)\n- com.intuit.karate.core.ScenarioEngine.lambda$new$0(ScenarioEngine.java:129)\n- <js>.:program(Unnamed:1)\n\nsrc\/test\/java\/users\/get\/user-get.feature:45","executorName":"main","name":"Get a list of user with file not found","startTime":1690357418572,"refId":"[7:44]","endTime":1690357418576,"exampleIndex":-1}],"callDepth":0,"name":"Get user regres","description":"","resultDate":"2023-07-26 09:43:38 AM","durationMillis":2422.1661,"passedCount":4}