{"failedCount":1,"prefixedPath":"src\/test\/java\/users\/get\/user-get.feature","packageQualifiedName":"src.test.java.users.get.user-get","loopIndex":-1,"relativePath":"src\/test\/java\/users\/get\/user-get.feature","scenarioResults":[{"sectionIndex":11,"stepResults":[{"result":{"nanos":108736600,"millis":108.7366,"status":"passed"},"step":{"line":72,"prefix":"*","index":0,"text":"def jsonResponse = read('..\/json\/list_of_users.json')"}},{"result":{"nanos":3500200,"millis":3.5002,"status":"passed"},"step":{"line":73,"prefix":"Given","index":1,"text":"url \"https:\/\/reqres.in\" + \"\/api\/users?\/delay\/\" + \"1\""}},{"result":{"nanos":905566000,"millis":905.566,"status":"passed"},"step":{"line":74,"prefix":"When","index":2,"text":"method get"},"stepLog":"23:07:23.617 request:\n1 > GET https:\/\/reqres.in\/api\/users?\/delay\/1\n1 > Host: reqres.in\n1 > Connection: Keep-Alive\n1 > User-Agent: Apache-HttpClient\/4.5.13 (Java\/1.8.0_321)\n1 > Accept-Encoding: gzip,deflate\n\n\n23:07:24.016 response time in milliseconds: 398\n1 < 200\n1 < Date: Fri, 28 Jul 2023 21:07:24 GMT\n1 < Content-Type: application\/json; charset=utf-8\n1 < Transfer-Encoding: chunked\n1 < Connection: keep-alive\n1 < X-Powered-By: Express\n1 < Access-Control-Allow-Origin: *\n1 < Etag: W\/\"3e4-2RLXvr5wTg9YQ6aH95CkYoFNuO8\"\n1 < Via: 1.1 vegur\n1 < Cache-Control: max-age=14400\n1 < CF-Cache-Status: MISS\n1 < Report-To: {\"endpoints\":[{\"url\":\"https:\\\/\\\/a.nel.cloudflare.com\\\/report\\\/v3?s=VhXcPabXWiZ8xQXbJibOz%2FEQtTwGooTR6q%2FyXIuEdJVhLK8NyG2KsJ20BWxTOtxZbTSNDvDgy%2B8rBggma21oBV3qzAih4o7BHaUub1lmzyVBZJGISxWmlo3iUQ%3D%3D\"}],\"group\":\"cf-nel\",\"max_age\":604800}\n1 < NEL: {\"success_fraction\":0,\"report_to\":\"cf-nel\",\"max_age\":604800}\n1 < Vary: Accept-Encoding\n1 < Server: cloudflare\n1 < CF-RAY: 7ee0176a6ddd86c6-MAD\n{\"page\":1,\"per_page\":6,\"total\":12,\"total_pages\":2,\"data\":[{\"id\":1,\"email\":\"george.bluth@reqres.in\",\"first_name\":\"George\",\"last_name\":\"Bluth\",\"avatar\":\"https:\/\/reqres.in\/img\/faces\/1-image.jpg\"},{\"id\":2,\"email\":\"janet.weaver@reqres.in\",\"first_name\":\"Janet\",\"last_name\":\"Weaver\",\"avatar\":\"https:\/\/reqres.in\/img\/faces\/2-image.jpg\"},{\"id\":3,\"email\":\"emma.wong@reqres.in\",\"first_name\":\"Emma\",\"last_name\":\"Wong\",\"avatar\":\"https:\/\/reqres.in\/img\/faces\/3-image.jpg\"},{\"id\":4,\"email\":\"eve.holt@reqres.in\",\"first_name\":\"Eve\",\"last_name\":\"Holt\",\"avatar\":\"https:\/\/reqres.in\/img\/faces\/4-image.jpg\"},{\"id\":5,\"email\":\"charles.morris@reqres.in\",\"first_name\":\"Charles\",\"last_name\":\"Morris\",\"avatar\":\"https:\/\/reqres.in\/img\/faces\/5-image.jpg\"},{\"id\":6,\"email\":\"tracey.ramos@reqres.in\",\"first_name\":\"Tracey\",\"last_name\":\"Ramos\",\"avatar\":\"https:\/\/reqres.in\/img\/faces\/6-image.jpg\"}],\"support\":{\"url\":\"https:\/\/reqres.in\/#support-heading\",\"text\":\"To keep ReqRes free, contributions towards server costs are appreciated!\"}}\n\n"},{"result":{"nanos":11400,"millis":0.0114,"status":"passed"},"step":{"line":75,"prefix":"Then","index":3,"text":"status 200"}},{"result":{"nanos":10827200,"millis":10.8272,"status":"passed"},"step":{"line":76,"prefix":"And","index":4,"text":"match $ == jsonResponse"}},{"result":{"nanos":6809900,"errorMessage":"js failed:\n>>>>\n01: read('..\/json\/list_of_users.json1')\n<<<<\norg.graalvm.polyglot.PolyglotException: java.io.FileNotFoundException: C:\\Cursos_AT\\Automatizacion\\Karate\\curso_basico_karate\\src\\test\\java\\users\\get\\..\\json\\list_of_users.json1 (El sistema no puede encontrar el archivo especificado)\n- com.intuit.karate.resource.FileResource.getStream(FileResource.java:98)\n- com.intuit.karate.core.ScenarioFileReader.readFileAsStream(ScenarioFileReader.java:102)\n- com.intuit.karate.core.ScenarioFileReader.readFile(ScenarioFileReader.java:79)\n- com.intuit.karate.core.ScenarioEngine.lambda$new$0(ScenarioEngine.java:129)\n- <js>.:program(Unnamed:1)\n\nsrc\/test\/java\/users\/get\/user-get.feature:77","millis":6.8099,"status":"failed"},"step":{"line":77,"prefix":"And","index":5,"text":"match $ == read('..\/json\/list_of_users.json1')"},"stepLog":"23:07:24.039 src\/test\/java\/users\/get\/user-get.feature:77\nAnd match $ == read('..\/json\/list_of_users.json1')\njs failed:\n>>>>\n01: read('..\/json\/list_of_users.json1')\n<<<<\norg.graalvm.polyglot.PolyglotException: java.io.FileNotFoundException: C:\\Cursos_AT\\Automatizacion\\Karate\\curso_basico_karate\\src\\test\\java\\users\\get\\..\\json\\list_of_users.json1 (El sistema no puede encontrar el archivo especificado)\n- com.intuit.karate.resource.FileResource.getStream(FileResource.java:98)\n- com.intuit.karate.core.ScenarioFileReader.readFileAsStream(ScenarioFileReader.java:102)\n- com.intuit.karate.core.ScenarioFileReader.readFile(ScenarioFileReader.java:79)\n- com.intuit.karate.core.ScenarioEngine.lambda$new$0(ScenarioEngine.java:129)\n- <js>.:program(Unnamed:1)\n\nsrc\/test\/java\/users\/get\/user-get.feature:77\n"}],"line":71,"description":"","durationMillis":1035.4513,"failed":true,"error":"js failed:\n>>>>\n01: read('..\/json\/list_of_users.json1')\n<<<<\norg.graalvm.polyglot.PolyglotException: java.io.FileNotFoundException: C:\\Cursos_AT\\Automatizacion\\Karate\\curso_basico_karate\\src\\test\\java\\users\\get\\..\\json\\list_of_users.json1 (El sistema no puede encontrar el archivo especificado)\n- com.intuit.karate.resource.FileResource.getStream(FileResource.java:98)\n- com.intuit.karate.core.ScenarioFileReader.readFileAsStream(ScenarioFileReader.java:102)\n- com.intuit.karate.core.ScenarioFileReader.readFile(ScenarioFileReader.java:79)\n- com.intuit.karate.core.ScenarioEngine.lambda$new$0(ScenarioEngine.java:129)\n- <js>.:program(Unnamed:1)\n\nsrc\/test\/java\/users\/get\/user-get.feature:77","executorName":"main","name":"Get a delayed with response and file json","startTime":1690578442995,"refId":"[12:71]","endTime":1690578444039,"exampleIndex":-1}],"callDepth":0,"name":"Get user regres","description":"","resultDate":"2023-07-28 11:07:24 PM","durationMillis":1035.4513,"passedCount":0}