{"failedCount":0,"prefixedPath":"src\/test\/java\/users\/post\/user-post.feature","packageQualifiedName":"src.test.java.users.post.user-post","loopIndex":-1,"relativePath":"src\/test\/java\/users\/post\/user-post.feature","scenarioResults":[{"sectionIndex":7,"stepResults":[{"result":{"nanos":50562800,"millis":50.5628,"status":"passed"},"step":{"comments":["#    * def jsonResponse = read('..\/json\/list2_of_users.json')"],"line":60,"prefix":"Given","index":0,"text":"url \"https:\/\/reqres.in\/api\/login\""}},{"result":{"nanos":752616500,"millis":752.6165,"status":"passed"},"step":{"line":61,"prefix":"When","index":1,"text":"method GET"},"stepLog":"14:53:54.210 request:\n1 > GET https:\/\/reqres.in\/api\/login\n1 > Host: reqres.in\n1 > Connection: Keep-Alive\n1 > User-Agent: Apache-HttpClient\/4.5.13 (Java\/1.8.0_321)\n1 > Accept-Encoding: gzip,deflate\n\n\n14:53:54.460 response time in milliseconds: 247\n1 < 200\n1 < Date: Fri, 28 Jul 2023 12:53:54 GMT\n1 < Content-Type: application\/json; charset=utf-8\n1 < Transfer-Encoding: chunked\n1 < Connection: keep-alive\n1 < X-Powered-By: Express\n1 < Access-Control-Allow-Origin: *\n1 < Etag: W\/\"2c1-N6Rqerxquq2kgQhL51EiSg4x0R8\"\n1 < Via: 1.1 vegur\n1 < Cache-Control: max-age=14400\n1 < CF-Cache-Status: REVALIDATED\n1 < Report-To: {\"endpoints\":[{\"url\":\"https:\\\/\\\/a.nel.cloudflare.com\\\/report\\\/v3?s=FLuNNYETl%2BNc4E8hE9QJs%2BcAsH6YQ0k3m4%2Fq%2Fs0DLNEkTlGVHmuz4XD7fzG7z3xIuk0Awk3r%2BXVOGW74jgiAhK2SVMGJBmSMQmOyxB5tjsqL9iZiTUmaRzhnMQ%3D%3D\"}],\"group\":\"cf-nel\",\"max_age\":604800}\n1 < NEL: {\"success_fraction\":0,\"report_to\":\"cf-nel\",\"max_age\":604800}\n1 < Vary: Accept-Encoding\n1 < Server: cloudflare\n1 < CF-RAY: 7edd4486dc813144-MAD\n{\"page\":1,\"per_page\":6,\"total\":12,\"total_pages\":2,\"data\":[{\"id\":1,\"name\":\"cerulean\",\"year\":2000,\"color\":\"#98B2D1\",\"pantone_value\":\"15-4020\"},{\"id\":2,\"name\":\"fuchsia rose\",\"year\":2001,\"color\":\"#C74375\",\"pantone_value\":\"17-2031\"},{\"id\":3,\"name\":\"true red\",\"year\":2002,\"color\":\"#BF1932\",\"pantone_value\":\"19-1664\"},{\"id\":4,\"name\":\"aqua sky\",\"year\":2003,\"color\":\"#7BC4C4\",\"pantone_value\":\"14-4811\"},{\"id\":5,\"name\":\"tigerlily\",\"year\":2004,\"color\":\"#E2583E\",\"pantone_value\":\"17-1456\"},{\"id\":6,\"name\":\"blue turquoise\",\"year\":2005,\"color\":\"#53B0AE\",\"pantone_value\":\"15-5217\"}],\"support\":{\"url\":\"https:\/\/reqres.in\/#support-heading\",\"text\":\"To keep ReqRes free, contributions towards server costs are appreciated!\"}}\n\n"},{"result":{"nanos":16100,"millis":0.0161,"status":"passed"},"step":{"line":62,"prefix":"Then","index":2,"text":"status 200"}}],"executorName":"main","line":58,"name":"Post login succeful","description":"","durationMillis":803.1954,"startTime":1690548833664,"failed":false,"refId":"[8:58]","endTime":1690548834476,"exampleIndex":-1}],"callDepth":0,"name":"Post user regres","description":"","resultDate":"2023-07-28 02:53:54 PM","durationMillis":803.1954,"passedCount":1}