{"failedCount":1,"prefixedPath":"src\/test\/java\/users\/erros\/errors.users.get.feature","packageQualifiedName":"src.test.java.users.erros.errors.users.get","loopIndex":-1,"relativePath":"src\/test\/java\/users\/erros\/errors.users.get.feature","scenarioResults":[{"sectionIndex":1,"stepResults":[{"result":{"nanos":109904200,"millis":109.9042,"status":"passed"},"step":{"line":9,"prefix":"*","index":0,"text":"def jsonResponse = read('..\/json\/login2_get.json')"}},{"result":{"nanos":1319900,"millis":1.3199,"status":"passed"},"step":{"line":10,"prefix":"Given","index":1,"text":"url \"https:\/\/reqres.in\/api\/login\""}},{"result":{"nanos":863134400,"millis":863.1344,"status":"passed"},"step":{"line":11,"prefix":"When","index":2,"text":"method POST"},"stepLog":"15:16:30.232 request:\n1 > POST https:\/\/reqres.in\/api\/login\n1 > Host: reqres.in\n1 > Connection: Keep-Alive\n1 > User-Agent: Apache-HttpClient\/4.5.13 (Java\/1.8.0_321)\n1 > Accept-Encoding: gzip,deflate\n\n\n15:16:30.611 response time in milliseconds: 278\n1 < 400\n1 < Date: Fri, 28 Jul 2023 13:16:30 GMT\n1 < Content-Type: application\/json; charset=utf-8\n1 < Content-Length: 37\n1 < Connection: keep-alive\n1 < X-Powered-By: Express\n1 < Access-Control-Allow-Origin: *\n1 < Etag: W\/\"25-Ik70kof1lbc973ShN5FoVPxYn7A\"\n1 < Via: 1.1 vegur\n1 < CF-Cache-Status: DYNAMIC\n1 < Report-To: {\"endpoints\":[{\"url\":\"https:\\\/\\\/a.nel.cloudflare.com\\\/report\\\/v3?s=7OWdgfdO3mv%2FOb%2B8yEmVjZaWvEYCH4Z3PpSoyFeyu9WNTXf6%2Ba%2FwNPPfhWup7AUcUjld5fZfTqEOT4R2eVYLq2SibMCIvxV8n7SgRDhDaVnoR5X6FivpjSfUKA%3D%3D\"}],\"group\":\"cf-nel\",\"max_age\":604800}\n1 < NEL: {\"success_fraction\":0,\"report_to\":\"cf-nel\",\"max_age\":604800}\n1 < Server: cloudflare\n1 < CF-RAY: 7edd65a21fd78680-MAD\n{\"error\":\"Missing email or username\"}\n\n"},{"result":{"nanos":17200,"millis":0.0172,"status":"passed"},"step":{"line":12,"prefix":"Then","index":3,"text":"status 400"}},{"result":{"nanos":19426300,"errorMessage":"match failed: EQUALS\n  $ | not equal | actual does not contain key - 'page' (MAP:MAP)\n  {\"error\":\"Missing email or username\"}\n  {\"page\":1,\"per_page\":6,\"total\":12,\"total_pages\":2,\"data\":[{\"id\":1,\"name\":\"cerulean\",\"year\":2000,\"color\":\"#98B2D1\",\"pantone_value\":\"15-4020\"},{\"id\":2,\"name\":\"fuchsia rose\",\"year\":2001,\"color\":\"#C74375\",\"pantone_value\":\"17-2031\"},{\"id\":3,\"name\":\"true red\",\"year\":2002,\"color\":\"#BF1932\",\"pantone_value\":\"19-1664\"},{\"id\":4,\"name\":\"aqua sky\",\"year\":2003,\"color\":\"#7BC4C4\",\"pantone_value\":\"14-4811\"},{\"id\":5,\"name\":\"tigerlily\",\"year\":2004,\"color\":\"#E2583E\",\"pantone_value\":\"17-1456\"},{\"id\":6,\"name\":\"blue turquoise\",\"year\":2005,\"color\":\"#53B0AE\",\"pantone_value\":\"15-5217\"}],\"support\":{\"url\":\"https:\/\/reqres.in\/#support-heading\",\"text\":\"To keep ReqRes free, contributions towards server costs are appreciated!\"}}\n\n\nsrc\/test\/java\/users\/erros\/errors.users.get.feature:13","millis":19.4263,"status":"failed"},"step":{"line":13,"prefix":"And","index":4,"text":"match $ == jsonResponse"},"stepLog":"15:16:30.636 src\/test\/java\/users\/erros\/errors.users.get.feature:13\nAnd match $ == jsonResponse\nmatch failed: EQUALS\n  $ | not equal | actual does not contain key - 'page' (MAP:MAP)\n  {\"error\":\"Missing email or username\"}\n  {\"page\":1,\"per_page\":6,\"total\":12,\"total_pages\":2,\"data\":[{\"id\":1,\"name\":\"cerulean\",\"year\":2000,\"color\":\"#98B2D1\",\"pantone_value\":\"15-4020\"},{\"id\":2,\"name\":\"fuchsia rose\",\"year\":2001,\"color\":\"#C74375\",\"pantone_value\":\"17-2031\"},{\"id\":3,\"name\":\"true red\",\"year\":2002,\"color\":\"#BF1932\",\"pantone_value\":\"19-1664\"},{\"id\":4,\"name\":\"aqua sky\",\"year\":2003,\"color\":\"#7BC4C4\",\"pantone_value\":\"14-4811\"},{\"id\":5,\"name\":\"tigerlily\",\"year\":2004,\"color\":\"#E2583E\",\"pantone_value\":\"17-1456\"},{\"id\":6,\"name\":\"blue turquoise\",\"year\":2005,\"color\":\"#53B0AE\",\"pantone_value\":\"15-5217\"}],\"support\":{\"url\":\"https:\/\/reqres.in\/#support-heading\",\"text\":\"To keep ReqRes free, contributions towards server costs are appreciated!\"}}\n\n\nsrc\/test\/java\/users\/erros\/errors.users.get.feature:13\n"}],"line":8,"description":"","durationMillis":993.802,"failed":true,"error":"match failed: EQUALS\n  $ | not equal | actual does not contain key - 'page' (MAP:MAP)\n  {\"error\":\"Missing email or username\"}\n  {\"page\":1,\"per_page\":6,\"total\":12,\"total_pages\":2,\"data\":[{\"id\":1,\"name\":\"cerulean\",\"year\":2000,\"color\":\"#98B2D1\",\"pantone_value\":\"15-4020\"},{\"id\":2,\"name\":\"fuchsia rose\",\"year\":2001,\"color\":\"#C74375\",\"pantone_value\":\"17-2031\"},{\"id\":3,\"name\":\"true red\",\"year\":2002,\"color\":\"#BF1932\",\"pantone_value\":\"19-1664\"},{\"id\":4,\"name\":\"aqua sky\",\"year\":2003,\"color\":\"#7BC4C4\",\"pantone_value\":\"14-4811\"},{\"id\":5,\"name\":\"tigerlily\",\"year\":2004,\"color\":\"#E2583E\",\"pantone_value\":\"17-1456\"},{\"id\":6,\"name\":\"blue turquoise\",\"year\":2005,\"color\":\"#53B0AE\",\"pantone_value\":\"15-5217\"}],\"support\":{\"url\":\"https:\/\/reqres.in\/#support-heading\",\"text\":\"To keep ReqRes free, contributions towards server costs are appreciated!\"}}\n\n\nsrc\/test\/java\/users\/erros\/errors.users.get.feature:13","executorName":"main","name":"Get errors login unsuccesful regres with respose","startTime":1690550189632,"refId":"[2:8]","endTime":1690550190636,"exampleIndex":-1}],"callDepth":0,"name":"Get errors login unsuccesful regres","description":"","resultDate":"2023-07-28 03:16:30 PM","durationMillis":993.802,"passedCount":0}