{"failedCount":0,"prefixedPath":"src\/test\/java\/users\/get\/user-get.feature","packageQualifiedName":"src.test.java.users.get.user-get","loopIndex":-1,"relativePath":"src\/test\/java\/users\/get\/user-get.feature","scenarioResults":[{"sectionIndex":0,"stepResults":[{"result":{"nanos":99637100,"millis":99.6371,"status":"passed"},"step":{"line":4,"prefix":"Given","index":0,"text":"url \"https:\/\/reqres.in\" + \"\/api\/users\/\" + \"1\""}},{"result":{"nanos":1351690500,"millis":1351.6905,"status":"passed"},"step":{"line":5,"prefix":"When","index":1,"text":"method get"},"stepLog":"21:19:30.341 request:\n1 > GET https:\/\/reqres.in\/api\/users\/1\n1 > Host: reqres.in\n1 > Connection: Keep-Alive\n1 > User-Agent: Apache-HttpClient\/4.5.13 (Java\/1.8.0_321)\n1 > Accept-Encoding: gzip,deflate\n\n\n21:19:30.658 response time in milliseconds: 317\n1 < 200\n1 < Date: Tue, 25 Jul 2023 19:19:30 GMT\n1 < Content-Type: application\/json; charset=utf-8\n1 < Transfer-Encoding: chunked\n1 < Connection: keep-alive\n1 < X-Powered-By: Express\n1 < Access-Control-Allow-Origin: *\n1 < Etag: W\/\"118-P3iKcVpIgCj9HqYeOOrGLX8qJVc\"\n1 < Via: 1.1 vegur\n1 < Cache-Control: max-age=14400\n1 < CF-Cache-Status: HIT\n1 < Age: 4568\n1 < Report-To: {\"endpoints\":[{\"url\":\"https:\\\/\\\/a.nel.cloudflare.com\\\/report\\\/v3?s=79RnlBml9GHXmKQD4fMABQHVjkYBQbl2hgcga7txCaJskJvv86ZrR%2FCMTwPkiKZi7USpiykRZAIE7Pcv1WKsRnJSMGq7jT%2B1qMY8ItLU44%2FWnqjCRcDfBkC8MA%3D%3D\"}],\"group\":\"cf-nel\",\"max_age\":604800}\n1 < NEL: {\"success_fraction\":0,\"report_to\":\"cf-nel\",\"max_age\":604800}\n1 < Vary: Accept-Encoding\n1 < Server: cloudflare\n1 < CF-RAY: 7ec6c1409ff62faf-MAD\n{\"data\":{\"id\":1,\"email\":\"george.bluth@reqres.in\",\"first_name\":\"George\",\"last_name\":\"Bluth\",\"avatar\":\"https:\/\/reqres.in\/img\/faces\/1-image.jpg\"},\"support\":{\"url\":\"https:\/\/reqres.in\/#support-heading\",\"text\":\"To keep ReqRes free, contributions towards server costs are appreciated!\"}}\n\n"},{"result":{"nanos":28600,"millis":0.0286,"status":"passed"},"step":{"line":6,"prefix":"Then","index":2,"text":"status 200"}}],"executorName":"main","line":3,"name":"Get a user","description":"","durationMillis":1451.3562,"startTime":1690312769223,"failed":false,"refId":"[1:3]","endTime":1690312770689,"exampleIndex":-1},{"sectionIndex":1,"stepResults":[{"result":{"nanos":1021400,"millis":1.0214,"status":"passed"},"step":{"line":9,"prefix":"Given","index":0,"text":"url \"https:\/\/reqres.in\" + \"\/api\/users\/\" + \"2\""}},{"result":{"nanos":127109400,"millis":127.1094,"status":"passed"},"step":{"line":10,"prefix":"When","index":1,"text":"method get"},"stepLog":"21:19:30.705 request:\n1 > GET https:\/\/reqres.in\/api\/users\/2\n1 > Host: reqres.in\n1 > Connection: Keep-Alive\n1 > User-Agent: Apache-HttpClient\/4.5.13 (Java\/1.8.0_321)\n1 > Accept-Encoding: gzip,deflate\n\n\n21:19:30.836 response time in milliseconds: 131\n1 < 200\n1 < Date: Tue, 25 Jul 2023 19:19:30 GMT\n1 < Content-Type: application\/json; charset=utf-8\n1 < Transfer-Encoding: chunked\n1 < Connection: keep-alive\n1 < X-Powered-By: Express\n1 < Access-Control-Allow-Origin: *\n1 < Etag: W\/\"118-pbdwwFo9SKNhD3Lx5iHJyngpq00\"\n1 < Via: 1.1 vegur\n1 < Cache-Control: max-age=14400\n1 < CF-Cache-Status: HIT\n1 < Age: 4690\n1 < Report-To: {\"endpoints\":[{\"url\":\"https:\\\/\\\/a.nel.cloudflare.com\\\/report\\\/v3?s=7a1zQkmFt1VeOpyGPtNswhKb%2B3kXISp7HPwpaGguqVpFg0EU3M0dTz6XP6sgpgzgzQm6iqrW6yw5ImWOWmYou7BLKqzr38rSJENAhAXRJHwuiOu4HF8CWqnk2A%3D%3D\"}],\"group\":\"cf-nel\",\"max_age\":604800}\n1 < NEL: {\"success_fraction\":0,\"report_to\":\"cf-nel\",\"max_age\":604800}\n1 < Vary: Accept-Encoding\n1 < Server: cloudflare\n1 < CF-RAY: 7ec6c141babb1a84-MAD\n{\"data\":{\"id\":2,\"email\":\"janet.weaver@reqres.in\",\"first_name\":\"Janet\",\"last_name\":\"Weaver\",\"avatar\":\"https:\/\/reqres.in\/img\/faces\/2-image.jpg\"},\"support\":{\"url\":\"https:\/\/reqres.in\/#support-heading\",\"text\":\"To keep ReqRes free, contributions towards server costs are appreciated!\"}}\n\n"},{"result":{"nanos":11100,"millis":0.0111,"status":"passed"},"step":{"line":11,"prefix":"Then","index":2,"text":"status 200"}}],"executorName":"main","line":8,"name":"Get a user","description":"","durationMillis":128.1419,"startTime":1690312770705,"failed":false,"refId":"[2:8]","endTime":1690312770836,"exampleIndex":-1},{"sectionIndex":2,"stepResults":[{"result":{"nanos":1983600,"millis":1.9836,"status":"passed"},"step":{"line":14,"prefix":"Given","index":0,"text":"url \"https:\/\/reqres.in\" + \"\/api\/users\/\" + \"3\""}},{"result":{"nanos":175375800,"millis":175.3758,"status":"passed"},"step":{"line":15,"prefix":"When","index":1,"text":"method get"},"stepLog":"21:19:30.843 request:\n1 > GET https:\/\/reqres.in\/api\/users\/3\n1 > Host: reqres.in\n1 > Connection: Keep-Alive\n1 > User-Agent: Apache-HttpClient\/4.5.13 (Java\/1.8.0_321)\n1 > Accept-Encoding: gzip,deflate\n\n\n21:19:31.021 response time in milliseconds: 178\n1 < 200\n1 < Date: Tue, 25 Jul 2023 19:19:31 GMT\n1 < Content-Type: application\/json; charset=utf-8\n1 < Transfer-Encoding: chunked\n1 < Connection: keep-alive\n1 < X-Powered-By: Express\n1 < Access-Control-Allow-Origin: *\n1 < Etag: W\/\"112-EeInfgHWtnxhYRnwgZUB667e024\"\n1 < Via: 1.1 vegur\n1 < Cache-Control: max-age=14400\n1 < CF-Cache-Status: REVALIDATED\n1 < Report-To: {\"endpoints\":[{\"url\":\"https:\\\/\\\/a.nel.cloudflare.com\\\/report\\\/v3?s=VYK3a71P9%2FhyOiS4Xa73qSmnC7Ou1flm3J0KuorW6MMLcx0ZBmtaSuTpGDlPbiXQNvDqytybTvzqVjb0Wd4MN%2FL3pyvanDAnNVzb8xBDKAE3mXNA2VNBRvB72g%3D%3D\"}],\"group\":\"cf-nel\",\"max_age\":604800}\n1 < NEL: {\"success_fraction\":0,\"report_to\":\"cf-nel\",\"max_age\":604800}\n1 < Vary: Accept-Encoding\n1 < Server: cloudflare\n1 < CF-RAY: 7ec6c1425e23664d-MAD\n{\"data\":{\"id\":3,\"email\":\"emma.wong@reqres.in\",\"first_name\":\"Emma\",\"last_name\":\"Wong\",\"avatar\":\"https:\/\/reqres.in\/img\/faces\/3-image.jpg\"},\"support\":{\"url\":\"https:\/\/reqres.in\/#support-heading\",\"text\":\"To keep ReqRes free, contributions towards server costs are appreciated!\"}}\n\n"},{"result":{"nanos":15700,"millis":0.0157,"status":"passed"},"step":{"line":16,"prefix":"Then","index":2,"text":"status 200"}}],"executorName":"main","line":13,"name":"Get a user","description":"","durationMillis":177.3751,"startTime":1690312770843,"failed":false,"refId":"[3:13]","endTime":1690312771021,"exampleIndex":-1},{"sectionIndex":3,"stepResults":[{"result":{"nanos":843900,"millis":0.8439,"status":"passed"},"step":{"line":19,"prefix":"Given","index":0,"text":"url \"https:\/\/reqres.in\/api\/users?page=1\""}},{"result":{"nanos":85659000,"millis":85.659,"status":"passed"},"step":{"line":20,"prefix":"When","index":1,"text":"method get"},"stepLog":"21:19:31.021 request:\n1 > GET https:\/\/reqres.in\/api\/users?page=1\n1 > Host: reqres.in\n1 > Connection: Keep-Alive\n1 > User-Agent: Apache-HttpClient\/4.5.13 (Java\/1.8.0_321)\n1 > Accept-Encoding: gzip,deflate\n\n\n21:19:31.106 response time in milliseconds: 85\n1 < 200\n1 < Date: Tue, 25 Jul 2023 19:19:31 GMT\n1 < Content-Type: application\/json; charset=utf-8\n1 < Transfer-Encoding: chunked\n1 < Connection: keep-alive\n1 < X-Powered-By: Express\n1 < Access-Control-Allow-Origin: *\n1 < Etag: W\/\"3e4-2RLXvr5wTg9YQ6aH95CkYoFNuO8\"\n1 < Via: 1.1 vegur\n1 < Cache-Control: max-age=14400\n1 < CF-Cache-Status: HIT\n1 < Age: 4622\n1 < Report-To: {\"endpoints\":[{\"url\":\"https:\\\/\\\/a.nel.cloudflare.com\\\/report\\\/v3?s=4tZZtj3OE7onfAOKs7JB%2FUgRkgCIQRPeGsMXeA6aLI6PqP9ExlT0R1Y1ItbLoaH6WC1ZGynltjhfdkmev9JTwpSItOilK%2FkJ9uDEuze4K3yFtEBSgHDY6UxkpQ%3D%3D\"}],\"group\":\"cf-nel\",\"max_age\":604800}\n1 < NEL: {\"success_fraction\":0,\"report_to\":\"cf-nel\",\"max_age\":604800}\n1 < Vary: Accept-Encoding\n1 < Server: cloudflare\n1 < CF-RAY: 7ec6c1437b5b6695-MAD\n{\"page\":1,\"per_page\":6,\"total\":12,\"total_pages\":2,\"data\":[{\"id\":1,\"email\":\"george.bluth@reqres.in\",\"first_name\":\"George\",\"last_name\":\"Bluth\",\"avatar\":\"https:\/\/reqres.in\/img\/faces\/1-image.jpg\"},{\"id\":2,\"email\":\"janet.weaver@reqres.in\",\"first_name\":\"Janet\",\"last_name\":\"Weaver\",\"avatar\":\"https:\/\/reqres.in\/img\/faces\/2-image.jpg\"},{\"id\":3,\"email\":\"emma.wong@reqres.in\",\"first_name\":\"Emma\",\"last_name\":\"Wong\",\"avatar\":\"https:\/\/reqres.in\/img\/faces\/3-image.jpg\"},{\"id\":4,\"email\":\"eve.holt@reqres.in\",\"first_name\":\"Eve\",\"last_name\":\"Holt\",\"avatar\":\"https:\/\/reqres.in\/img\/faces\/4-image.jpg\"},{\"id\":5,\"email\":\"charles.morris@reqres.in\",\"first_name\":\"Charles\",\"last_name\":\"Morris\",\"avatar\":\"https:\/\/reqres.in\/img\/faces\/5-image.jpg\"},{\"id\":6,\"email\":\"tracey.ramos@reqres.in\",\"first_name\":\"Tracey\",\"last_name\":\"Ramos\",\"avatar\":\"https:\/\/reqres.in\/img\/faces\/6-image.jpg\"}],\"support\":{\"url\":\"https:\/\/reqres.in\/#support-heading\",\"text\":\"To keep ReqRes free, contributions towards server costs are appreciated!\"}}\n\n"},{"result":{"nanos":14800,"millis":0.0148,"status":"passed"},"step":{"line":21,"prefix":"Then","index":2,"text":"status 200"}},{"result":{"nanos":63896600,"millis":63.8966,"status":"passed"},"step":{"line":22,"prefix":"And","index":3,"text":"match $ == {\"page\":1,\"per_page\":6,\"total\":12,\"total_pages\":2,\"data\":[{\"id\":1,\"email\":\"george.bluth@reqres.in\",\"first_name\":\"George\",\"last_name\":\"Bluth\",\"avatar\":\"https:\/\/reqres.in\/img\/faces\/1-image.jpg\"},{\"id\":2,\"email\":\"janet.weaver@reqres.in\",\"first_name\":\"Janet\",\"last_name\":\"Weaver\",\"avatar\":\"https:\/\/reqres.in\/img\/faces\/2-image.jpg\"},{\"id\":3,\"email\":\"emma.wong@reqres.in\",\"first_name\":\"Emma\",\"last_name\":\"Wong\",\"avatar\":\"https:\/\/reqres.in\/img\/faces\/3-image.jpg\"},{\"id\":4,\"email\":\"eve.holt@reqres.in\",\"first_name\":\"Eve\",\"last_name\":\"Holt\",\"avatar\":\"https:\/\/reqres.in\/img\/faces\/4-image.jpg\"},{\"id\":5,\"email\":\"charles.morris@reqres.in\",\"first_name\":\"Charles\",\"last_name\":\"Morris\",\"avatar\":\"https:\/\/reqres.in\/img\/faces\/5-image.jpg\"},{\"id\":6,\"email\":\"tracey.ramos@reqres.in\",\"first_name\":\"Tracey\",\"last_name\":\"Ramos\",\"avatar\":\"https:\/\/reqres.in\/img\/faces\/6-image.jpg\"}],\"support\":{\"url\":\"https:\/\/reqres.in\/#support-heading\",\"text\":\"To keep ReqRes free, contributions towards server costs are appreciated!\"}}"}}],"executorName":"main","line":18,"name":"Get a list of user","description":"","durationMillis":150.4143,"startTime":1690312771021,"failed":false,"refId":"[4:18]","endTime":1690312771175,"exampleIndex":-1},{"sectionIndex":4,"stepResults":[{"result":{"nanos":265886300,"millis":265.8863,"status":"passed"},"step":{"line":26,"prefix":"*","index":0,"text":"def jsonResponse = read('..\/json\/list_of_users.json')"}},{"result":{"nanos":824800,"millis":0.8248,"status":"passed"},"step":{"line":27,"prefix":"Given","index":1,"text":"url \"https:\/\/reqres.in\/api\/users?page=1\""}},{"result":{"nanos":178273700,"millis":178.2737,"status":"passed"},"step":{"line":28,"prefix":"When","index":2,"text":"method get"},"stepLog":"21:19:31.459 request:\n1 > GET https:\/\/reqres.in\/api\/users?page=1\n1 > Host: reqres.in\n1 > Connection: Keep-Alive\n1 > User-Agent: Apache-HttpClient\/4.5.13 (Java\/1.8.0_321)\n1 > Accept-Encoding: gzip,deflate\n\n\n21:19:31.629 response time in milliseconds: 170\n1 < 200\n1 < Date: Tue, 25 Jul 2023 19:19:31 GMT\n1 < Content-Type: application\/json; charset=utf-8\n1 < Transfer-Encoding: chunked\n1 < Connection: keep-alive\n1 < X-Powered-By: Express\n1 < Access-Control-Allow-Origin: *\n1 < Etag: W\/\"3e4-2RLXvr5wTg9YQ6aH95CkYoFNuO8\"\n1 < Via: 1.1 vegur\n1 < Cache-Control: max-age=14400\n1 < CF-Cache-Status: REVALIDATED\n1 < Report-To: {\"endpoints\":[{\"url\":\"https:\\\/\\\/a.nel.cloudflare.com\\\/report\\\/v3?s=B%2BWu0h30COVdb4v%2B9BveIglfoo7aePcqWp72U44k0X5dvBg0hkVGAp9lz9W1VYbkuyL061x3bzNnIZoDUpBz7bzmVmo9Q%2F6%2FhQ6TTBi9k%2FyQ1OswhnBvbUvEmQ%3D%3D\"}],\"group\":\"cf-nel\",\"max_age\":604800}\n1 < NEL: {\"success_fraction\":0,\"report_to\":\"cf-nel\",\"max_age\":604800}\n1 < Vary: Accept-Encoding\n1 < Server: cloudflare\n1 < CF-RAY: 7ec6c146389869d0-MAD\n{\"page\":1,\"per_page\":6,\"total\":12,\"total_pages\":2,\"data\":[{\"id\":1,\"email\":\"george.bluth@reqres.in\",\"first_name\":\"George\",\"last_name\":\"Bluth\",\"avatar\":\"https:\/\/reqres.in\/img\/faces\/1-image.jpg\"},{\"id\":2,\"email\":\"janet.weaver@reqres.in\",\"first_name\":\"Janet\",\"last_name\":\"Weaver\",\"avatar\":\"https:\/\/reqres.in\/img\/faces\/2-image.jpg\"},{\"id\":3,\"email\":\"emma.wong@reqres.in\",\"first_name\":\"Emma\",\"last_name\":\"Wong\",\"avatar\":\"https:\/\/reqres.in\/img\/faces\/3-image.jpg\"},{\"id\":4,\"email\":\"eve.holt@reqres.in\",\"first_name\":\"Eve\",\"last_name\":\"Holt\",\"avatar\":\"https:\/\/reqres.in\/img\/faces\/4-image.jpg\"},{\"id\":5,\"email\":\"charles.morris@reqres.in\",\"first_name\":\"Charles\",\"last_name\":\"Morris\",\"avatar\":\"https:\/\/reqres.in\/img\/faces\/5-image.jpg\"},{\"id\":6,\"email\":\"tracey.ramos@reqres.in\",\"first_name\":\"Tracey\",\"last_name\":\"Ramos\",\"avatar\":\"https:\/\/reqres.in\/img\/faces\/6-image.jpg\"}],\"support\":{\"url\":\"https:\/\/reqres.in\/#support-heading\",\"text\":\"To keep ReqRes free, contributions towards server costs are appreciated!\"}}\n\n"},{"result":{"nanos":11900,"millis":0.0119,"status":"passed"},"step":{"line":29,"prefix":"Then","index":3,"text":"status 200"}},{"result":{"nanos":1107400,"millis":1.1074,"status":"passed"},"step":{"line":30,"prefix":"And","index":4,"text":"match $ == {\"page\":1,\"per_page\":6,\"total\":12,\"total_pages\":2,\"data\":[{\"id\":1,\"email\":\"george.bluth@reqres.in\",\"first_name\":\"George\",\"last_name\":\"Bluth\",\"avatar\":\"https:\/\/reqres.in\/img\/faces\/1-image.jpg\"},{\"id\":2,\"email\":\"janet.weaver@reqres.in\",\"first_name\":\"Janet\",\"last_name\":\"Weaver\",\"avatar\":\"https:\/\/reqres.in\/img\/faces\/2-image.jpg\"},{\"id\":3,\"email\":\"emma.wong@reqres.in\",\"first_name\":\"Emma\",\"last_name\":\"Wong\",\"avatar\":\"https:\/\/reqres.in\/img\/faces\/3-image.jpg\"},{\"id\":4,\"email\":\"eve.holt@reqres.in\",\"first_name\":\"Eve\",\"last_name\":\"Holt\",\"avatar\":\"https:\/\/reqres.in\/img\/faces\/4-image.jpg\"},{\"id\":5,\"email\":\"charles.morris@reqres.in\",\"first_name\":\"Charles\",\"last_name\":\"Morris\",\"avatar\":\"https:\/\/reqres.in\/img\/faces\/5-image.jpg\"},{\"id\":6,\"email\":\"tracey.ramos@reqres.in\",\"first_name\":\"Tracey\",\"last_name\":\"Ramos\",\"avatar\":\"https:\/\/reqres.in\/img\/faces\/6-image.jpg\"}],\"support\":{\"url\":\"https:\/\/reqres.in\/#support-heading\",\"text\":\"To keep ReqRes free, contributions towards server costs are appreciated!\"}}"}},{"result":{"nanos":638600,"millis":0.6386,"status":"passed"},"step":{"line":31,"prefix":"And","index":5,"text":"match $ == jsonResponse"}},{"result":{"nanos":1477000,"millis":1.477,"status":"passed"},"step":{"line":32,"prefix":"And","index":6,"text":"match $ == read('..\/json\/list_of_users.json')"}}],"executorName":"main","line":25,"name":"Get a list of user with file","description":"","durationMillis":448.2197,"startTime":1690312771191,"failed":false,"refId":"[5:25]","endTime":1690312771629,"exampleIndex":-1},{"sectionIndex":5,"stepResults":[{"result":{"nanos":3034500,"millis":3.0345,"status":"passed"},"step":{"line":36,"prefix":"*","index":0,"text":"def jsonResponse = read('..\/json\/list2_of_users.json')"}},{"result":{"nanos":417900,"millis":0.4179,"status":"passed"},"step":{"line":37,"prefix":"Given","index":1,"text":"url \"https:\/\/reqres.in\/api\/users?page=1\""}},{"result":{"nanos":83951900,"millis":83.9519,"status":"passed"},"step":{"line":38,"prefix":"When","index":2,"text":"method get"},"stepLog":"21:19:31.644 request:\n1 > GET https:\/\/reqres.in\/api\/users?page=1\n1 > Host: reqres.in\n1 > Connection: Keep-Alive\n1 > User-Agent: Apache-HttpClient\/4.5.13 (Java\/1.8.0_321)\n1 > Accept-Encoding: gzip,deflate\n\n\n21:19:31.729 response time in milliseconds: 85\n1 < 200\n1 < Date: Tue, 25 Jul 2023 19:19:31 GMT\n1 < Content-Type: application\/json; charset=utf-8\n1 < Transfer-Encoding: chunked\n1 < Connection: keep-alive\n1 < X-Powered-By: Express\n1 < Access-Control-Allow-Origin: *\n1 < Etag: W\/\"3e4-2RLXvr5wTg9YQ6aH95CkYoFNuO8\"\n1 < Via: 1.1 vegur\n1 < Cache-Control: max-age=14400\n1 < CF-Cache-Status: HIT\n1 < Age: 4622\n1 < Report-To: {\"endpoints\":[{\"url\":\"https:\\\/\\\/a.nel.cloudflare.com\\\/report\\\/v3?s=UrFqfGfuvVr2j3CQyIAyEw5Ubbb7Is4%2BD5ZxUt2lpb0SR1%2FY6zbyMSB7taGN0ws%2BJVYW6e%2Fdy%2F1ggYJRk%2BieMdCk0oSyGEpiAJT8oOvj2lkmwf911g2QcQTRDA%3D%3D\"}],\"group\":\"cf-nel\",\"max_age\":604800}\n1 < NEL: {\"success_fraction\":0,\"report_to\":\"cf-nel\",\"max_age\":604800}\n1 < Vary: Accept-Encoding\n1 < Server: cloudflare\n1 < CF-RAY: 7ec6c147580e66ad-MAD\n{\"page\":1,\"per_page\":6,\"total\":12,\"total_pages\":2,\"data\":[{\"id\":1,\"email\":\"george.bluth@reqres.in\",\"first_name\":\"George\",\"last_name\":\"Bluth\",\"avatar\":\"https:\/\/reqres.in\/img\/faces\/1-image.jpg\"},{\"id\":2,\"email\":\"janet.weaver@reqres.in\",\"first_name\":\"Janet\",\"last_name\":\"Weaver\",\"avatar\":\"https:\/\/reqres.in\/img\/faces\/2-image.jpg\"},{\"id\":3,\"email\":\"emma.wong@reqres.in\",\"first_name\":\"Emma\",\"last_name\":\"Wong\",\"avatar\":\"https:\/\/reqres.in\/img\/faces\/3-image.jpg\"},{\"id\":4,\"email\":\"eve.holt@reqres.in\",\"first_name\":\"Eve\",\"last_name\":\"Holt\",\"avatar\":\"https:\/\/reqres.in\/img\/faces\/4-image.jpg\"},{\"id\":5,\"email\":\"charles.morris@reqres.in\",\"first_name\":\"Charles\",\"last_name\":\"Morris\",\"avatar\":\"https:\/\/reqres.in\/img\/faces\/5-image.jpg\"},{\"id\":6,\"email\":\"tracey.ramos@reqres.in\",\"first_name\":\"Tracey\",\"last_name\":\"Ramos\",\"avatar\":\"https:\/\/reqres.in\/img\/faces\/6-image.jpg\"}],\"support\":{\"url\":\"https:\/\/reqres.in\/#support-heading\",\"text\":\"To keep ReqRes free, contributions towards server costs are appreciated!\"}}\n\n"},{"result":{"nanos":12100,"millis":0.0121,"status":"passed"},"step":{"line":39,"prefix":"Then","index":3,"text":"status 200"}},{"result":{"nanos":1031300,"millis":1.0313,"status":"passed"},"step":{"line":40,"prefix":"And","index":4,"text":"match $ == jsonResponse"}},{"result":{"nanos":1599300,"millis":1.5993,"status":"passed"},"step":{"line":41,"prefix":"And","index":5,"text":"match $ == read('..\/json\/list_of_users.json')"}}],"executorName":"main","line":35,"name":"Get a list of user with file other data","description":"","durationMillis":90.047,"startTime":1690312771644,"failed":false,"refId":"[6:35]","endTime":1690312771729,"exampleIndex":-1},{"sectionIndex":6,"stepResults":[{"result":{"nanos":2848900,"millis":2.8489,"status":"passed"},"step":{"line":45,"prefix":"*","index":0,"text":"def jsonResponse = read('..\/json\/not_found.json')"}},{"result":{"nanos":1190900,"millis":1.1909,"status":"passed"},"step":{"line":46,"prefix":"Given","index":1,"text":"url \"https:\/\/reqres.in\/api\/unknown\/23\""}},{"result":{"nanos":162326200,"millis":162.3262,"status":"passed"},"step":{"line":47,"prefix":"When","index":2,"text":"method get"},"stepLog":"21:19:31.745 request:\n1 > GET https:\/\/reqres.in\/api\/unknown\/23\n1 > Host: reqres.in\n1 > Connection: Keep-Alive\n1 > User-Agent: Apache-HttpClient\/4.5.13 (Java\/1.8.0_321)\n1 > Accept-Encoding: gzip,deflate\n\n\n21:19:31.911 response time in milliseconds: 166\n1 < 404\n1 < Date: Tue, 25 Jul 2023 19:19:31 GMT\n1 < Content-Type: application\/json; charset=utf-8\n1 < Content-Length: 2\n1 < Connection: keep-alive\n1 < X-Powered-By: Express\n1 < Access-Control-Allow-Origin: *\n1 < Etag: W\/\"2-vyGp6PvFo4RvsFtPoIWeCReyIC8\"\n1 < Via: 1.1 vegur\n1 < Cache-Control: max-age=14400\n1 < CF-Cache-Status: EXPIRED\n1 < Report-To: {\"endpoints\":[{\"url\":\"https:\\\/\\\/a.nel.cloudflare.com\\\/report\\\/v3?s=R1v%2F%2FpBBDfUyyolWdpdJwwT864A5SeTyLJJgJT7JEKsOv2Ce%2BFQQSCPeEuaFS6NaxoC76ImvGb8MVHMQ6POUPe3k9zv6hzvtk9n0iSlSufWodldrQgQxoJZESg%3D%3D\"}],\"group\":\"cf-nel\",\"max_age\":604800}\n1 < NEL: {\"success_fraction\":0,\"report_to\":\"cf-nel\",\"max_age\":604800}\n1 < Vary: Accept-Encoding\n1 < Server: cloudflare\n1 < CF-RAY: 7ec6c147ee333153-MAD\n{}\n\n"},{"result":{"nanos":11700,"millis":0.0117,"status":"passed"},"step":{"line":48,"prefix":"Then","index":3,"text":"status 404"}},{"result":{"nanos":308900,"millis":0.3089,"status":"passed"},"step":{"line":49,"prefix":"And","index":4,"text":"match $ == jsonResponse"}}],"executorName":"main","line":44,"name":"Get a list of user with file not found","description":"","durationMillis":166.6866,"startTime":1690312771745,"failed":false,"refId":"[7:44]","endTime":1690312771911,"exampleIndex":-1}],"callDepth":0,"name":"Get user regres","description":"","resultDate":"2023-07-25 09:19:31 PM","durationMillis":2612.2408,"passedCount":7}