{"failedCount":1,"prefixedPath":"src\/test\/java\/users\/get\/user-get.feature","packageQualifiedName":"src.test.java.users.get.user-get","loopIndex":-1,"relativePath":"src\/test\/java\/users\/get\/user-get.feature","scenarioResults":[{"sectionIndex":4,"stepResults":[{"result":{"nanos":90060400,"errorMessage":"js failed:\n>>>>\n01: read('..\/json\/list_of_users.json')\n<<<<\norg.graalvm.polyglot.PolyglotException: java.io.FileNotFoundException: C:\\Cursos_AT\\Automatizacion\\Karate\\curso_basico_karate\\src\\test\\java\\users\\get\\..\\json\\list_of_users.json (El sistema no puede encontrar la ruta especificada)\n- com.intuit.karate.resource.FileResource.getStream(FileResource.java:98)\n- com.intuit.karate.core.ScenarioFileReader.readFileAsStream(ScenarioFileReader.java:102)\n- com.intuit.karate.core.ScenarioFileReader.readFileAsString(ScenarioFileReader.java:98)\n- com.intuit.karate.core.ScenarioFileReader.readFile(ScenarioFileReader.java:56)\n- com.intuit.karate.core.ScenarioEngine.lambda$new$0(ScenarioEngine.java:129)\n- <js>.:program(Unnamed:1)\n\nsrc\/test\/java\/users\/get\/user-get.feature:26","millis":90.0604,"status":"failed"},"step":{"line":26,"prefix":"*","index":0,"text":"def jsonResponse = read('..\/json\/list_of_users.json')"},"stepLog":"13:43:38.286 src\/test\/java\/users\/get\/user-get.feature:26\n* def jsonResponse = read('..\/json\/list_of_users.json')\njs failed:\n>>>>\n01: read('..\/json\/list_of_users.json')\n<<<<\norg.graalvm.polyglot.PolyglotException: java.io.FileNotFoundException: C:\\Cursos_AT\\Automatizacion\\Karate\\curso_basico_karate\\src\\test\\java\\users\\get\\..\\json\\list_of_users.json (El sistema no puede encontrar la ruta especificada)\n- com.intuit.karate.resource.FileResource.getStream(FileResource.java:98)\n- com.intuit.karate.core.ScenarioFileReader.readFileAsStream(ScenarioFileReader.java:102)\n- com.intuit.karate.core.ScenarioFileReader.readFileAsString(ScenarioFileReader.java:98)\n- com.intuit.karate.core.ScenarioFileReader.readFile(ScenarioFileReader.java:56)\n- com.intuit.karate.core.ScenarioEngine.lambda$new$0(ScenarioEngine.java:129)\n- <js>.:program(Unnamed:1)\n\nsrc\/test\/java\/users\/get\/user-get.feature:26\n"},{"result":{"nanos":0,"millis":0.0,"status":"skipped"},"step":{"line":27,"prefix":"Given","index":1,"text":"url \"https:\/\/reqres.in\/api\/users?page=1\""}},{"result":{"nanos":0,"millis":0.0,"status":"skipped"},"step":{"line":28,"prefix":"When","index":2,"text":"method get"}},{"result":{"nanos":0,"millis":0.0,"status":"skipped"},"step":{"line":29,"prefix":"Then","index":3,"text":"status 200"}},{"result":{"nanos":0,"millis":0.0,"status":"skipped"},"step":{"line":30,"prefix":"And","index":4,"text":"match $ == {\"page\":1,\"per_page\":6,\"total\":12,\"total_pages\":2,\"data\":[{\"id\":1,\"email\":\"george.bluth@reqres.in\",\"first_name\":\"George\",\"last_name\":\"Bluth\",\"avatar\":\"https:\/\/reqres.in\/img\/faces\/1-image.jpg\"},{\"id\":2,\"email\":\"janet.weaver@reqres.in\",\"first_name\":\"Janet\",\"last_name\":\"Weaver\",\"avatar\":\"https:\/\/reqres.in\/img\/faces\/2-image.jpg\"},{\"id\":3,\"email\":\"emma.wong@reqres.in\",\"first_name\":\"Emma\",\"last_name\":\"Wong\",\"avatar\":\"https:\/\/reqres.in\/img\/faces\/3-image.jpg\"},{\"id\":4,\"email\":\"eve.holt@reqres.in\",\"first_name\":\"Eve\",\"last_name\":\"Holt\",\"avatar\":\"https:\/\/reqres.in\/img\/faces\/4-image.jpg\"},{\"id\":5,\"email\":\"charles.morris@reqres.in\",\"first_name\":\"Charles\",\"last_name\":\"Morris\",\"avatar\":\"https:\/\/reqres.in\/img\/faces\/5-image.jpg\"},{\"id\":6,\"email\":\"tracey.ramos@reqres.in\",\"first_name\":\"Tracey\",\"last_name\":\"Ramos\",\"avatar\":\"https:\/\/reqres.in\/img\/faces\/6-image.jpg\"}],\"support\":{\"url\":\"https:\/\/reqres.in\/#support-heading\",\"text\":\"To keep ReqRes free, contributions towards server costs are appreciated!\"}}"}},{"result":{"nanos":0,"millis":0.0,"status":"skipped"},"step":{"line":31,"prefix":"And","index":5,"text":"match $ == jsonResponse"}}],"line":25,"description":"","durationMillis":90.0604,"failed":true,"error":"js failed:\n>>>>\n01: read('..\/json\/list_of_users.json')\n<<<<\norg.graalvm.polyglot.PolyglotException: java.io.FileNotFoundException: C:\\Cursos_AT\\Automatizacion\\Karate\\curso_basico_karate\\src\\test\\java\\users\\get\\..\\json\\list_of_users.json (El sistema no puede encontrar la ruta especificada)\n- com.intuit.karate.resource.FileResource.getStream(FileResource.java:98)\n- com.intuit.karate.core.ScenarioFileReader.readFileAsStream(ScenarioFileReader.java:102)\n- com.intuit.karate.core.ScenarioFileReader.readFileAsString(ScenarioFileReader.java:98)\n- com.intuit.karate.core.ScenarioFileReader.readFile(ScenarioFileReader.java:56)\n- com.intuit.karate.core.ScenarioEngine.lambda$new$0(ScenarioEngine.java:129)\n- <js>.:program(Unnamed:1)\n\nsrc\/test\/java\/users\/get\/user-get.feature:26","executorName":"main","name":"Get a list of user with file","startTime":1690285418189,"refId":"[5:25]","endTime":1690285418287,"exampleIndex":-1}],"callDepth":0,"name":"Get user regres","description":"","resultDate":"2023-07-25 01:43:38 PM","durationMillis":90.0604,"passedCount":0}