{"failedCount":1,"prefixedPath":"src\/test\/java\/users\/post\/user-post.feature","packageQualifiedName":"src.test.java.users.post.user-post","loopIndex":-1,"relativePath":"src\/test\/java\/users\/post\/user-post.feature","scenarioResults":[{"sectionIndex":0,"stepResults":[{"result":{"nanos":93562000,"millis":93.562,"status":"passed"},"step":{"line":4,"prefix":"Given","index":0,"text":"url \"https:\/\/reqres.in\" + \"\/api\/users\/\" + \"1\""}},{"result":{"nanos":1470512800,"millis":1470.5128,"status":"passed"},"step":{"line":5,"prefix":"When","index":1,"text":"method post"},"stepLog":"21:19:48.799 request:\n1 > POST https:\/\/reqres.in\/api\/users\/1\n1 > Host: reqres.in\n1 > Connection: Keep-Alive\n1 > User-Agent: Apache-HttpClient\/4.5.13 (Java\/1.8.0_321)\n1 > Accept-Encoding: gzip,deflate\n\n\n21:19:49.223 response time in milliseconds: 409\n1 < 201\n1 < Date: Tue, 25 Jul 2023 19:19:49 GMT\n1 < Content-Type: application\/json; charset=utf-8\n1 < Content-Length: 50\n1 < Connection: keep-alive\n1 < X-Powered-By: Express\n1 < Access-Control-Allow-Origin: *\n1 < Etag: W\/\"32-xmeGnEVKxtjDQhnt+79bZIzKnbY\"\n1 < Via: 1.1 vegur\n1 < CF-Cache-Status: DYNAMIC\n1 < Report-To: {\"endpoints\":[{\"url\":\"https:\\\/\\\/a.nel.cloudflare.com\\\/report\\\/v3?s=y7wEijQenKuDV7BEcJobV%2F2tohhM9Rnii7sC9e4PqdnxWFsdUvYKQeCl0bhJrLMBJsNcaYjj2muvlEx%2B4wzN1w46mps%2FfrP2%2BqWP96LPZ2I8bAuCWDbvXLuNbQ%3D%3D\"}],\"group\":\"cf-nel\",\"max_age\":604800}\n1 < NEL: {\"success_fraction\":0,\"report_to\":\"cf-nel\",\"max_age\":604800}\n1 < Server: cloudflare\n1 < CF-RAY: 7ec6c1b41ec76675-MAD\n{\"id\":\"40\",\"createdAt\":\"2023-07-25T19:19:49.197Z\"}\n\n"},{"result":{"nanos":25800,"millis":0.0258,"status":"passed"},"step":{"line":6,"prefix":"Then","index":2,"text":"status 201"}}],"executorName":"main","line":3,"name":"Post a user","description":"","durationMillis":1564.1006,"startTime":1690312787676,"failed":false,"refId":"[1:3]","endTime":1690312789271,"exampleIndex":-1},{"sectionIndex":1,"stepResults":[{"result":{"nanos":2010600,"millis":2.0106,"status":"passed"},"step":{"line":9,"prefix":"Given","index":0,"text":"url \"https:\/\/reqres.in\" + \"\/api\/users\/\" + \"2\""}},{"result":{"nanos":188147800,"millis":188.1478,"status":"passed"},"step":{"line":10,"prefix":"When","index":1,"text":"method post"},"stepLog":"21:19:49.283 request:\n1 > POST https:\/\/reqres.in\/api\/users\/2\n1 > Host: reqres.in\n1 > Connection: Keep-Alive\n1 > User-Agent: Apache-HttpClient\/4.5.13 (Java\/1.8.0_321)\n1 > Accept-Encoding: gzip,deflate\n\n\n21:19:49.467 response time in milliseconds: 184\n1 < 201\n1 < Date: Tue, 25 Jul 2023 19:19:49 GMT\n1 < Content-Type: application\/json; charset=utf-8\n1 < Content-Length: 51\n1 < Connection: keep-alive\n1 < X-Powered-By: Express\n1 < Access-Control-Allow-Origin: *\n1 < Etag: W\/\"33-s5bfm22DCflb3yA0hzfuHuTvjDk\"\n1 < Via: 1.1 vegur\n1 < CF-Cache-Status: DYNAMIC\n1 < Report-To: {\"endpoints\":[{\"url\":\"https:\\\/\\\/a.nel.cloudflare.com\\\/report\\\/v3?s=JT7%2BXsXwUAMqgLfrflMtUSLTmJu5TpbdtsVPtOXFtAqqWBk0kbjSvTtqe3ZVxcE3dAtD8o3Mgw3JIXtpyLI80WjF2YTvoZjLWgoG%2BzscqTz8UaJXqBzQUkWX1g%3D%3D\"}],\"group\":\"cf-nel\",\"max_age\":604800}\n1 < NEL: {\"success_fraction\":0,\"report_to\":\"cf-nel\",\"max_age\":604800}\n1 < Server: cloudflare\n1 < CF-RAY: 7ec6c1b59a81218f-MAD\n{\"id\":\"200\",\"createdAt\":\"2023-07-25T19:19:49.455Z\"}\n\n"},{"result":{"nanos":14000,"millis":0.014,"status":"passed"},"step":{"line":11,"prefix":"Then","index":2,"text":"status 201"}}],"executorName":"main","line":8,"name":"Post a user","description":"","durationMillis":190.1724,"startTime":1690312789273,"failed":false,"refId":"[2:8]","endTime":1690312789467,"exampleIndex":-1},{"sectionIndex":2,"stepResults":[{"result":{"nanos":884700,"millis":0.8847,"status":"passed"},"step":{"line":14,"prefix":"Given","index":0,"text":"url \"https:\/\/reqres.in\" + \"\/api\/users\/\" + \"3\""}},{"result":{"nanos":185547200,"millis":185.5472,"status":"passed"},"step":{"line":15,"prefix":"When","index":1,"text":"method post"},"stepLog":"21:19:49.477 request:\n1 > POST https:\/\/reqres.in\/api\/users\/3\n1 > Host: reqres.in\n1 > Connection: Keep-Alive\n1 > User-Agent: Apache-HttpClient\/4.5.13 (Java\/1.8.0_321)\n1 > Accept-Encoding: gzip,deflate\n\n\n21:19:49.663 response time in milliseconds: 186\n1 < 201\n1 < Date: Tue, 25 Jul 2023 19:19:49 GMT\n1 < Content-Type: application\/json; charset=utf-8\n1 < Content-Length: 51\n1 < Connection: keep-alive\n1 < X-Powered-By: Express\n1 < Access-Control-Allow-Origin: *\n1 < Etag: W\/\"33-FY+RkDeSAyP6nESwKGtsGjGS\/H8\"\n1 < Via: 1.1 vegur\n1 < CF-Cache-Status: DYNAMIC\n1 < Report-To: {\"endpoints\":[{\"url\":\"https:\\\/\\\/a.nel.cloudflare.com\\\/report\\\/v3?s=Xh5jHinic%2FFGPAVZvWQ6HALiNZQrZy8eYbdbYnevN0oMxbSpA4k1EbjN38mzq5wjclkqHuALN4tUedNIxH0wC3Dk%2B8JnpJGfXVEZq87Y4cUNwcAq0W3%2BP62JZg%3D%3D\"}],\"group\":\"cf-nel\",\"max_age\":604800}\n1 < NEL: {\"success_fraction\":0,\"report_to\":\"cf-nel\",\"max_age\":604800}\n1 < Server: cloudflare\n1 < CF-RAY: 7ec6c1b6dda72f98-MAD\n{\"id\":\"532\",\"createdAt\":\"2023-07-25T19:19:49.641Z\"}\n\n"},{"result":{"nanos":17200,"millis":0.0172,"status":"passed"},"step":{"line":16,"prefix":"Then","index":2,"text":"status 201"}}],"executorName":"main","line":13,"name":"Post a user","description":"","durationMillis":186.4491,"startTime":1690312789477,"failed":false,"refId":"[3:13]","endTime":1690312789665,"exampleIndex":-1},{"sectionIndex":3,"stepResults":[{"result":{"nanos":701100,"millis":0.7011,"status":"passed"},"step":{"line":19,"prefix":"Given","index":0,"text":"url \"https:\/\/reqres.in\" + \"\/api\/users\/\" + \"2\""}},{"result":{"nanos":142320600,"millis":142.3206,"status":"passed"},"step":{"line":20,"prefix":"When","index":1,"text":"method post"},"stepLog":"21:19:49.675 request:\n1 > POST https:\/\/reqres.in\/api\/users\/2\n1 > Host: reqres.in\n1 > Connection: Keep-Alive\n1 > User-Agent: Apache-HttpClient\/4.5.13 (Java\/1.8.0_321)\n1 > Accept-Encoding: gzip,deflate\n\n\n21:19:49.809 response time in milliseconds: 134\n1 < 201\n1 < Date: Tue, 25 Jul 2023 19:19:49 GMT\n1 < Content-Type: application\/json; charset=utf-8\n1 < Content-Length: 51\n1 < Connection: keep-alive\n1 < X-Powered-By: Express\n1 < Access-Control-Allow-Origin: *\n1 < Etag: W\/\"33-6PqbHRz0LRIOr5B2c3P\/+OiDWXk\"\n1 < Via: 1.1 vegur\n1 < CF-Cache-Status: DYNAMIC\n1 < Report-To: {\"endpoints\":[{\"url\":\"https:\\\/\\\/a.nel.cloudflare.com\\\/report\\\/v3?s=VWivgFT9Q3lSyDIzXdcAurOVeH9Z4YreXLaiZKjvU67rDR5wARwOw03aTQmpYEkDfZ%2FAyEYbCwdan%2F234qHTx5vOUCmq7qK93g%2Fids7WiLyoe9pBYCQomejrwA%3D%3D\"}],\"group\":\"cf-nel\",\"max_age\":604800}\n1 < NEL: {\"success_fraction\":0,\"report_to\":\"cf-nel\",\"max_age\":604800}\n1 < Server: cloudflare\n1 < CF-RAY: 7ec6c1b7dd972f97-MAD\n{\"id\":\"887\",\"createdAt\":\"2023-07-25T19:19:49.802Z\"}\n\n"},{"result":{"nanos":18700,"millis":0.0187,"status":"passed"},"step":{"line":21,"prefix":"Then","index":2,"text":"status 201"}},{"result":{"nanos":55557300,"errorMessage":"match failed: EQUALS\n  $ | not equal | actual does not contain key - 'page' (MAP:MAP)\n  {\"id\":\"887\",\"createdAt\":\"2023-07-25T19:19:49.802Z\"}\n  {\"page\":2,\"per_page\":6,\"total\":12,\"total_pages\":2,\"data\":[{\"id\":7,\"email\":\"michael.lawson@reqres.in\",\"first_name\":\"Michael\",\"last_name\":\"Lawson\",\"avatar\":\"https:\/\/reqres.in\/img\/faces\/7-image.jpg\"},{\"id\":8,\"email\":\"lindsay.ferguson@reqres.in\",\"first_name\":\"Lindsay\",\"last_name\":\"Ferguson\",\"avatar\":\"https:\/\/reqres.in\/img\/faces\/8-image.jpg\"},{\"id\":9,\"email\":\"tobias.funke@reqres.in\",\"first_name\":\"Tobias\",\"last_name\":\"Funke\",\"avatar\":\"https:\/\/reqres.in\/img\/faces\/9-image.jpg\"},{\"id\":10,\"email\":\"byron.fields@reqres.in\",\"first_name\":\"Byron\",\"last_name\":\"Fields\",\"avatar\":\"https:\/\/reqres.in\/img\/faces\/10-image.jpg\"},{\"id\":11,\"email\":\"george.edwards@reqres.in\",\"first_name\":\"George\",\"last_name\":\"Edwards\",\"avatar\":\"https:\/\/reqres.in\/img\/faces\/11-image.jpg\"},{\"id\":12,\"email\":\"rachel.howell@reqres.in\",\"first_name\":\"Rachel\",\"last_name\":\"Howell\",\"avatar\":\"https:\/\/reqres.in\/img\/faces\/12-image.jpg\"}],\"support\":{\"url\":\"https:\/\/reqres.in\/#support-heading\",\"text\":\"To keep ReqRes free, contributions towards server costs are appreciated!\"}}\n\n\nsrc\/test\/java\/users\/post\/user-post.feature:22","millis":55.5573,"status":"failed"},"step":{"line":22,"prefix":"And","index":3,"text":"match $ == {\"page\":2,\"per_page\":6,\"total\":12,\"total_pages\":2,\"data\":[{\"id\":7,\"email\":\"michael.lawson@reqres.in\",\"first_name\":\"Michael\",\"last_name\":\"Lawson\",\"avatar\":\"https:\/\/reqres.in\/img\/faces\/7-image.jpg\"},{\"id\":8,\"email\":\"lindsay.ferguson@reqres.in\",\"first_name\":\"Lindsay\",\"last_name\":\"Ferguson\",\"avatar\":\"https:\/\/reqres.in\/img\/faces\/8-image.jpg\"},{\"id\":9,\"email\":\"tobias.funke@reqres.in\",\"first_name\":\"Tobias\",\"last_name\":\"Funke\",\"avatar\":\"https:\/\/reqres.in\/img\/faces\/9-image.jpg\"},{\"id\":10,\"email\":\"byron.fields@reqres.in\",\"first_name\":\"Byron\",\"last_name\":\"Fields\",\"avatar\":\"https:\/\/reqres.in\/img\/faces\/10-image.jpg\"},{\"id\":11,\"email\":\"george.edwards@reqres.in\",\"first_name\":\"George\",\"last_name\":\"Edwards\",\"avatar\":\"https:\/\/reqres.in\/img\/faces\/11-image.jpg\"},{\"id\":12,\"email\":\"rachel.howell@reqres.in\",\"first_name\":\"Rachel\",\"last_name\":\"Howell\",\"avatar\":\"https:\/\/reqres.in\/img\/faces\/12-image.jpg\"}],\"support\":{\"url\":\"https:\/\/reqres.in\/#support-heading\",\"text\":\"To keep ReqRes free, contributions towards server costs are appreciated!\"}}"},"stepLog":"21:19:49.871 src\/test\/java\/users\/post\/user-post.feature:22\nAnd match $ == {\"page\":2,\"per_page\":6,\"total\":12,\"total_pages\":2,\"data\":[{\"id\":7,\"email\":\"michael.lawson@reqres.in\",\"first_name\":\"Michael\",\"last_name\":\"Lawson\",\"avatar\":\"https:\/\/reqres.in\/img\/faces\/7-image.jpg\"},{\"id\":8,\"email\":\"lindsay.ferguson@reqres.in\",\"first_name\":\"Lindsay\",\"last_name\":\"Ferguson\",\"avatar\":\"https:\/\/reqres.in\/img\/faces\/8-image.jpg\"},{\"id\":9,\"email\":\"tobias.funke@reqres.in\",\"first_name\":\"Tobias\",\"last_name\":\"Funke\",\"avatar\":\"https:\/\/reqres.in\/img\/faces\/9-image.jpg\"},{\"id\":10,\"email\":\"byron.fields@reqres.in\",\"first_name\":\"Byron\",\"last_name\":\"Fields\",\"avatar\":\"https:\/\/reqres.in\/img\/faces\/10-image.jpg\"},{\"id\":11,\"email\":\"george.edwards@reqres.in\",\"first_name\":\"George\",\"last_name\":\"Edwards\",\"avatar\":\"https:\/\/reqres.in\/img\/faces\/11-image.jpg\"},{\"id\":12,\"email\":\"rachel.howell@reqres.in\",\"first_name\":\"Rachel\",\"last_name\":\"Howell\",\"avatar\":\"https:\/\/reqres.in\/img\/faces\/12-image.jpg\"}],\"support\":{\"url\":\"https:\/\/reqres.in\/#support-heading\",\"text\":\"To keep ReqRes free, contributions towards server costs are appreciated!\"}}\nmatch failed: EQUALS\n  $ | not equal | actual does not contain key - 'page' (MAP:MAP)\n  {\"id\":\"887\",\"createdAt\":\"2023-07-25T19:19:49.802Z\"}\n  {\"page\":2,\"per_page\":6,\"total\":12,\"total_pages\":2,\"data\":[{\"id\":7,\"email\":\"michael.lawson@reqres.in\",\"first_name\":\"Michael\",\"last_name\":\"Lawson\",\"avatar\":\"https:\/\/reqres.in\/img\/faces\/7-image.jpg\"},{\"id\":8,\"email\":\"lindsay.ferguson@reqres.in\",\"first_name\":\"Lindsay\",\"last_name\":\"Ferguson\",\"avatar\":\"https:\/\/reqres.in\/img\/faces\/8-image.jpg\"},{\"id\":9,\"email\":\"tobias.funke@reqres.in\",\"first_name\":\"Tobias\",\"last_name\":\"Funke\",\"avatar\":\"https:\/\/reqres.in\/img\/faces\/9-image.jpg\"},{\"id\":10,\"email\":\"byron.fields@reqres.in\",\"first_name\":\"Byron\",\"last_name\":\"Fields\",\"avatar\":\"https:\/\/reqres.in\/img\/faces\/10-image.jpg\"},{\"id\":11,\"email\":\"george.edwards@reqres.in\",\"first_name\":\"George\",\"last_name\":\"Edwards\",\"avatar\":\"https:\/\/reqres.in\/img\/faces\/11-image.jpg\"},{\"id\":12,\"email\":\"rachel.howell@reqres.in\",\"first_name\":\"Rachel\",\"last_name\":\"Howell\",\"avatar\":\"https:\/\/reqres.in\/img\/faces\/12-image.jpg\"}],\"support\":{\"url\":\"https:\/\/reqres.in\/#support-heading\",\"text\":\"To keep ReqRes free, contributions towards server costs are appreciated!\"}}\n\n\nsrc\/test\/java\/users\/post\/user-post.feature:22\n"}],"line":18,"description":"","durationMillis":198.5977,"failed":true,"error":"match failed: EQUALS\n  $ | not equal | actual does not contain key - 'page' (MAP:MAP)\n  {\"id\":\"887\",\"createdAt\":\"2023-07-25T19:19:49.802Z\"}\n  {\"page\":2,\"per_page\":6,\"total\":12,\"total_pages\":2,\"data\":[{\"id\":7,\"email\":\"michael.lawson@reqres.in\",\"first_name\":\"Michael\",\"last_name\":\"Lawson\",\"avatar\":\"https:\/\/reqres.in\/img\/faces\/7-image.jpg\"},{\"id\":8,\"email\":\"lindsay.ferguson@reqres.in\",\"first_name\":\"Lindsay\",\"last_name\":\"Ferguson\",\"avatar\":\"https:\/\/reqres.in\/img\/faces\/8-image.jpg\"},{\"id\":9,\"email\":\"tobias.funke@reqres.in\",\"first_name\":\"Tobias\",\"last_name\":\"Funke\",\"avatar\":\"https:\/\/reqres.in\/img\/faces\/9-image.jpg\"},{\"id\":10,\"email\":\"byron.fields@reqres.in\",\"first_name\":\"Byron\",\"last_name\":\"Fields\",\"avatar\":\"https:\/\/reqres.in\/img\/faces\/10-image.jpg\"},{\"id\":11,\"email\":\"george.edwards@reqres.in\",\"first_name\":\"George\",\"last_name\":\"Edwards\",\"avatar\":\"https:\/\/reqres.in\/img\/faces\/11-image.jpg\"},{\"id\":12,\"email\":\"rachel.howell@reqres.in\",\"first_name\":\"Rachel\",\"last_name\":\"Howell\",\"avatar\":\"https:\/\/reqres.in\/img\/faces\/12-image.jpg\"}],\"support\":{\"url\":\"https:\/\/reqres.in\/#support-heading\",\"text\":\"To keep ReqRes free, contributions towards server costs are appreciated!\"}}\n\n\nsrc\/test\/java\/users\/post\/user-post.feature:22","executorName":"main","name":"Post a user","startTime":1690312789673,"refId":"[4:18]","endTime":1690312789871,"exampleIndex":-1}],"callDepth":0,"name":"Post user regres","description":"","resultDate":"2023-07-25 09:19:49 PM","durationMillis":2139.3198,"passedCount":3}