{"failedCount":0,"prefixedPath":"src\/test\/java\/users\/get\/user-get.feature","packageQualifiedName":"src.test.java.users.get.user-get","loopIndex":-1,"relativePath":"src\/test\/java\/users\/get\/user-get.feature","scenarioResults":[{"sectionIndex":7,"stepResults":[{"result":{"nanos":106508700,"millis":106.5087,"status":"passed"},"step":{"line":49,"prefix":"*","index":0,"text":"def jsonResponse = read('..\/json\/login1_get.json')"}},{"result":{"nanos":1150800,"millis":1.1508,"status":"passed"},"step":{"line":50,"prefix":"Given","index":1,"text":"url \"https:\/\/reqres.in\/api\/login\""}},{"result":{"nanos":876699200,"millis":876.6992,"status":"passed"},"step":{"line":51,"prefix":"When","index":2,"text":"method GET"},"stepLog":"15:03:24.494 request:\n1 > GET https:\/\/reqres.in\/api\/login\n1 > Host: reqres.in\n1 > Connection: Keep-Alive\n1 > User-Agent: Apache-HttpClient\/4.5.13 (Java\/1.8.0_321)\n1 > Accept-Encoding: gzip,deflate\n\n\n15:03:24.874 response time in milliseconds: 378\n1 < 200\n1 < Date: Fri, 28 Jul 2023 13:03:24 GMT\n1 < Content-Type: application\/json; charset=utf-8\n1 < Transfer-Encoding: chunked\n1 < Connection: keep-alive\n1 < X-Powered-By: Express\n1 < Access-Control-Allow-Origin: *\n1 < Etag: W\/\"2c1-N6Rqerxquq2kgQhL51EiSg4x0R8\"\n1 < Via: 1.1 vegur\n1 < Cache-Control: max-age=14400\n1 < CF-Cache-Status: MISS\n1 < Report-To: {\"endpoints\":[{\"url\":\"https:\\\/\\\/a.nel.cloudflare.com\\\/report\\\/v3?s=Q%2FIhgdVh%2Fdo09pQvHAkqZ1KzZOEKHBWFOXwaO4fsVrXXtLekZ9F47nI6iJoYyOxfN5skGMdsEMDwQHiwy4ceKIK01bfy66oaex9Z8aZRTiSCrKfMSbXFt3oO2g%3D%3D\"}],\"group\":\"cf-nel\",\"max_age\":604800}\n1 < NEL: {\"success_fraction\":0,\"report_to\":\"cf-nel\",\"max_age\":604800}\n1 < Vary: Accept-Encoding\n1 < Server: cloudflare\n1 < CF-RAY: 7edd527348cdff0c-MAD\n{\"page\":1,\"per_page\":6,\"total\":12,\"total_pages\":2,\"data\":[{\"id\":1,\"name\":\"cerulean\",\"year\":2000,\"color\":\"#98B2D1\",\"pantone_value\":\"15-4020\"},{\"id\":2,\"name\":\"fuchsia rose\",\"year\":2001,\"color\":\"#C74375\",\"pantone_value\":\"17-2031\"},{\"id\":3,\"name\":\"true red\",\"year\":2002,\"color\":\"#BF1932\",\"pantone_value\":\"19-1664\"},{\"id\":4,\"name\":\"aqua sky\",\"year\":2003,\"color\":\"#7BC4C4\",\"pantone_value\":\"14-4811\"},{\"id\":5,\"name\":\"tigerlily\",\"year\":2004,\"color\":\"#E2583E\",\"pantone_value\":\"17-1456\"},{\"id\":6,\"name\":\"blue turquoise\",\"year\":2005,\"color\":\"#53B0AE\",\"pantone_value\":\"15-5217\"}],\"support\":{\"url\":\"https:\/\/reqres.in\/#support-heading\",\"text\":\"To keep ReqRes free, contributions towards server costs are appreciated!\"}}\n\n"},{"result":{"nanos":13100,"millis":0.0131,"status":"passed"},"step":{"line":52,"prefix":"Then","index":3,"text":"status 200"}},{"result":{"nanos":13344500,"millis":13.3445,"status":"passed"},"step":{"line":53,"prefix":"And","index":4,"text":"match $ == jsonResponse"}},{"result":{"nanos":1277300,"millis":1.2773,"status":"passed"},"step":{"line":54,"prefix":"And","index":5,"text":"match $ == read('..\/json\/login1_get.json')"}}],"executorName":"main","line":48,"name":"Post login succeful with response","description":"","durationMillis":998.9936,"startTime":1690549403886,"failed":false,"refId":"[8:48]","endTime":1690549404893,"exampleIndex":-1}],"callDepth":0,"name":"Get user regres","description":"","resultDate":"2023-07-28 03:03:24 PM","durationMillis":998.9936,"passedCount":1}