{"failedCount":0,"prefixedPath":"src\/test\/java\/users\/get\/user-get.feature","packageQualifiedName":"src.test.java.users.get.user-get","loopIndex":-1,"relativePath":"src\/test\/java\/users\/get\/user-get.feature","scenarioResults":[{"sectionIndex":5,"stepResults":[{"result":{"nanos":106577600,"millis":106.5776,"status":"passed"},"step":{"line":36,"prefix":"*","index":0,"text":"def jsonResponse = read('..\/json\/list2_of_users.json')"}},{"result":{"nanos":1257400,"millis":1.2574,"status":"passed"},"step":{"line":37,"prefix":"Given","index":1,"text":"url \"https:\/\/reqres.in\/api\/users?page=1\""}},{"result":{"nanos":840288400,"millis":840.2884,"status":"passed"},"step":{"line":38,"prefix":"When","index":2,"text":"method get"},"stepLog":"14:22:34.248 request:\n1 > GET https:\/\/reqres.in\/api\/users?page=1\n1 > Host: reqres.in\n1 > Connection: Keep-Alive\n1 > User-Agent: Apache-HttpClient\/4.5.13 (Java\/1.8.0_321)\n1 > Accept-Encoding: gzip,deflate\n\n\n14:22:34.578 response time in milliseconds: 327\n1 < 200\n1 < Date: Tue, 25 Jul 2023 12:22:34 GMT\n1 < Content-Type: application\/json; charset=utf-8\n1 < Transfer-Encoding: chunked\n1 < Connection: keep-alive\n1 < X-Powered-By: Express\n1 < Access-Control-Allow-Origin: *\n1 < Etag: W\/\"3e4-2RLXvr5wTg9YQ6aH95CkYoFNuO8\"\n1 < Via: 1.1 vegur\n1 < Cache-Control: max-age=14400\n1 < CF-Cache-Status: HIT\n1 < Age: 2021\n1 < Report-To: {\"endpoints\":[{\"url\":\"https:\\\/\\\/a.nel.cloudflare.com\\\/report\\\/v3?s=hvLd5nJdyprzFXhKVreVyPfZZTbM9MZjTksT9diF7tk8hEWpYXXmtbRI0B5ebOPHlvGwWnEE9ENaQ4aw8Nu%2FEk%2F2AikWKyZqwEQW3CBiqifIibtht2uEPqUs8Q%3D%3D\"}],\"group\":\"cf-nel\",\"max_age\":604800}\n1 < NEL: {\"success_fraction\":0,\"report_to\":\"cf-nel\",\"max_age\":604800}\n1 < Vary: Accept-Encoding\n1 < Server: cloudflare\n1 < CF-RAY: 7ec45e813b652f92-MAD\n{\"page\":1,\"per_page\":6,\"total\":12,\"total_pages\":2,\"data\":[{\"id\":1,\"email\":\"george.bluth@reqres.in\",\"first_name\":\"George\",\"last_name\":\"Bluth\",\"avatar\":\"https:\/\/reqres.in\/img\/faces\/1-image.jpg\"},{\"id\":2,\"email\":\"janet.weaver@reqres.in\",\"first_name\":\"Janet\",\"last_name\":\"Weaver\",\"avatar\":\"https:\/\/reqres.in\/img\/faces\/2-image.jpg\"},{\"id\":3,\"email\":\"emma.wong@reqres.in\",\"first_name\":\"Emma\",\"last_name\":\"Wong\",\"avatar\":\"https:\/\/reqres.in\/img\/faces\/3-image.jpg\"},{\"id\":4,\"email\":\"eve.holt@reqres.in\",\"first_name\":\"Eve\",\"last_name\":\"Holt\",\"avatar\":\"https:\/\/reqres.in\/img\/faces\/4-image.jpg\"},{\"id\":5,\"email\":\"charles.morris@reqres.in\",\"first_name\":\"Charles\",\"last_name\":\"Morris\",\"avatar\":\"https:\/\/reqres.in\/img\/faces\/5-image.jpg\"},{\"id\":6,\"email\":\"tracey.ramos@reqres.in\",\"first_name\":\"Tracey\",\"last_name\":\"Ramos\",\"avatar\":\"https:\/\/reqres.in\/img\/faces\/6-image.jpg\"}],\"support\":{\"url\":\"https:\/\/reqres.in\/#support-heading\",\"text\":\"To keep ReqRes free, contributions towards server costs are appreciated!\"}}\n\n"},{"result":{"nanos":17100,"millis":0.0171,"status":"passed"},"step":{"line":39,"prefix":"Then","index":3,"text":"status 200"}},{"result":{"nanos":15069600,"millis":15.0696,"status":"passed"},"step":{"line":40,"prefix":"And","index":4,"text":"match $ == jsonResponse"}},{"result":{"nanos":1392500,"millis":1.3925,"status":"passed"},"step":{"line":41,"prefix":"And","index":5,"text":"match $ == read('..\/json\/list_of_users.json')"}}],"executorName":"main","line":35,"name":"Get a list of user with file other data","description":"","durationMillis":964.6026,"startTime":1690287753625,"failed":false,"refId":"[6:35]","endTime":1690287754599,"exampleIndex":-1}],"callDepth":0,"name":"Get user regres","description":"","resultDate":"2023-07-25 02:22:34 PM","durationMillis":964.6026,"passedCount":1}